%YAML 1.1
%TAG !u! tag:unity3d.com,2011:
--- !u!21 &2100000
Material:
  serializedVersion: 6
  m_ObjectHideFlags: 0
  m_CorrespondingSourceObject: {fileID: 0}
  m_PrefabInstance: {fileID: 0}
  m_PrefabAsset: {fileID: 0}
  m_Name: 1_Game_Rock 2
  m_Shader: {fileID: -6465566751694194690, guid: b920afb2dceed9a47af854e8e5c28731,
    type: 3}
  m_ShaderKeywords: MAIN_LIGHT_CALCULATE_SHADOWS _MAIN_LIGHT_SHADOWS_CASCADE _SHADOWS_SOFT
    ADDITIONAL_LIGHT_CALCULATE_SHADOWS
  m_LightmapFlags: 4
  m_EnableInstancingVariants: 0
  m_DoubleSidedGI: 1
  m_CustomRenderQueue: -1
  stringTagMap: {}
  disabledShaderPasses: []
  m_SavedProperties:
    serializedVersion: 3
    m_TexEnvs:
    - Texture2D_1bbd738ece4a4919abe3a93d6cfbeb18:
        m_Texture: {fileID: 0}
        m_Scale: {x: 1, y: 1}
        m_Offset: {x: 0, y: 0}
    - Texture2D_a2ab5558166d4075bd04d88a3ea63629:
        m_Texture: {fileID: 2800000, guid: fab85e0cacda9644a99e5182a86b71f5, type: 3}
        m_Scale: {x: 1, y: 1}
        m_Offset: {x: 0, y: 0}
    - Texture2D_ef5c1b779add4f7fae62580d88968bea:
        m_Texture: {fileID: 2800000, guid: 87ce03bd447ccce48bbff87ac0d8355f, type: 3}
        m_Scale: {x: 1, y: 1}
        m_Offset: {x: 0, y: 0}
    - _BaseMap:
        m_Texture: {fileID: 2800000, guid: 02861684ba86f9247a095be34d2f1e5d, type: 3}
        m_Scale: {x: 1, y: 1}
        m_Offset: {x: 0, y: 0}
    - _NormalMap:
        m_Texture: {fileID: 0}
        m_Scale: {x: 1, y: 1}
        m_Offset: {x: 0, y: 0}
    - _NormalMap2:
        m_Texture: {fileID: 0}
        m_Scale: {x: 1, y: 1}
        m_Offset: {x: 0, y: 0}
    - _PatternTexture:
        m_Texture: {fileID: 0}
        m_Scale: {x: 1, y: 1}
        m_Offset: {x: 0, y: 0}
    - unity_Lightmaps:
        m_Texture: {fileID: 0}
        m_Scale: {x: 1, y: 1}
        m_Offset: {x: 0, y: 0}
    - unity_LightmapsInd:
        m_Texture: {fileID: 0}
        m_Scale: {x: 1, y: 1}
        m_Offset: {x: 0, y: 0}
    - unity_ShadowMasks:
        m_Texture: {fileID: 0}
        m_Scale: {x: 1, y: 1}
        m_Offset: {x: 0, y: 0}
    m_Floats:
    - Vector1_04f7e996a5154f5d8210d9d5f8d61c0b: 0
    - Vector1_1b11819c946e44f8a30b132d08b6dda6: 0
    - Vector1_1ed2a9d3150d45289fbcf60613f1652b: 7
    - Vector1_488fdc6ed8734337b00701d92e2092df: 0.15
    - Vector1_6a58685d7d2a4e45aab6d500517942de: 0.07
    - Vector1_89fa3a17508341c693a3f46816cca74b: 0
    - Vector1_c84afd70a93247f4a20067b4a70f6203: 3
    - _Alpha: 0.37
    - _Alphaclip: 0
    - _Dither: 2
    - _DitherOnOff: 0
    - _FresnelSize: 0.3
    - _Hue: 0
    - _LightingCutoff: 0
    - _NoiseScale: -18.5
    - _Saturation: 1
    - _Smoothness: 2
    m_Colors:
    - Color_3422dfcbe5c447afb5bfd6620f23c29e: {r: 0.7924528, g: 0.63547343, b: 0.5494838,
        a: 1}
    - Color_76abeff900b1449fba62fc84e49838dc: {r: 1, g: 0.44493097, b: 0, a: 1}
    - Color_a2350a5c30644dddb91d24186c07a956: {r: 0.28969383, g: 0.3962264, b: 0.3962264,
        a: 0}
    - Color_c092e232783c46c0add905c7f4669ee3: {r: 0.8301887, g: 0.37128362, b: 0.11356357,
        a: 1}
    - Color_c6fea71b27f44a3e9b1d9455c099f790: {r: 0.9811321, g: 0.9811321, b: 0.9811321,
        a: 0}
    - Color_cf5186203b3e456b8496d134c338d332: {r: 0.25858846, g: 0.35288212, b: 0.3679245,
        a: 0}
    - _BaseColor: {r: 1, g: 0.81761, b: 0.81761, a: 0}
    - _EmissionColor: {r: 0, g: 0, b: 0, a: 0}
    - _FresnelColor: {r: 1, g: 1, b: 1, a: 0}
    - _SpecularColor: {r: 0, g: 0, b: 0, a: 0}
  m_BuildTextureStacks: []
