%YAML 1.1
%TAG !u! tag:unity3d.com,2011:
--- !u!1 &2038607583
GameObject:
  m_ObjectHideFlags: 0
  m_CorrespondingSourceObject: {fileID: 0}
  m_PrefabInstance: {fileID: 0}
  m_PrefabAsset: {fileID: 0}
  serializedVersion: 6
  m_Component:
  - component: {fileID: 2038607584}
  - component: {fileID: 2038607586}
  - component: {fileID: 2038607585}
  - component: {fileID: 2038607587}
  m_Layer: 2
  m_Name: PostProcessingZoomIn
  m_TagString: Untagged
  m_Icon: {fileID: 0}
  m_NavMeshLayer: 0
  m_StaticEditorFlags: 0
  m_IsActive: 1
--- !u!4 &2038607584
Transform:
  m_ObjectHideFlags: 0
  m_CorrespondingSourceObject: {fileID: 0}
  m_PrefabInstance: {fileID: 0}
  m_PrefabAsset: {fileID: 0}
  m_GameObject: {fileID: 2038607583}
  m_LocalRotation: {x: 0, y: 0, z: 0, w: 1}
  m_LocalPosition: {x: 0.21999979, y: 0.29000002, z: -4.91}
  m_LocalScale: {x: 1, y: 1, z: 1}
  m_Children: []
  m_Father: {fileID: 283054571348075145}
  m_RootOrder: 5
  m_LocalEulerAnglesHint: {x: 0, y: 0, z: 0}
--- !u!114 &2038607586
MonoBehaviour:
  m_ObjectHideFlags: 0
  m_CorrespondingSourceObject: {fileID: 0}
  m_PrefabInstance: {fileID: 0}
  m_PrefabAsset: {fileID: 0}
  m_GameObject: {fileID: 2038607583}
  m_Enabled: 1
  m_EditorHideFlags: 0
  m_Script: {fileID: 11500000, guid: 172515602e62fb746b5d573b38a5fe58, type: 3}
  m_Name: 
  m_EditorClassIdentifier: 
  isGlobal: 0
  priority: 1
  blendDistance: 0.5
  weight: 1
  sharedProfile: {fileID: 11400000, guid: be6436f30c9b5b747b4e81e1015c8d56, type: 2}
--- !u!135 &2038607585
SphereCollider:
  m_ObjectHideFlags: 0
  m_CorrespondingSourceObject: {fileID: 0}
  m_PrefabInstance: {fileID: 0}
  m_PrefabAsset: {fileID: 0}
  m_GameObject: {fileID: 2038607583}
  m_Material: {fileID: 0}
  m_IsTrigger: 1
  m_Enabled: 1
  serializedVersion: 2
  m_Radius: 6.59
  m_Center: {x: 0, y: 0, z: 0}
--- !u!1818360608 &2038607587
PositionConstraint:
  m_ObjectHideFlags: 0
  m_CorrespondingSourceObject: {fileID: 0}
  m_PrefabInstance: {fileID: 0}
  m_PrefabAsset: {fileID: 0}
  m_GameObject: {fileID: 2038607583}
  m_Enabled: 1
  m_Weight: 1
  m_TranslationAtRest: {x: -5.81, y: -0.95, z: -33.62}
  m_TranslationOffset: {x: 0, y: 0, z: 0}
  m_AffectTranslationX: 1
  m_AffectTranslationY: 1
  m_AffectTranslationZ: 1
  m_IsContraintActive: 1
  m_IsLocked: 1
  m_Sources:
  - sourceTransform: {fileID: 7060083596325606138}
    weight: 1
--- !u!1 &283054571348075146
GameObject:
  m_ObjectHideFlags: 0
  m_CorrespondingSourceObject: {fileID: 0}
  m_PrefabInstance: {fileID: 0}
  m_PrefabAsset: {fileID: 0}
  serializedVersion: 6
  m_Component:
  - component: {fileID: 283054571348075145}
  m_Layer: 0
  m_Name: Important
  m_TagString: Untagged
  m_Icon: {fileID: 0}
  m_NavMeshLayer: 0
  m_StaticEditorFlags: 0
  m_IsActive: 1
--- !u!4 &283054571348075145
Transform:
  m_ObjectHideFlags: 0
  m_CorrespondingSourceObject: {fileID: 0}
  m_PrefabInstance: {fileID: 0}
  m_PrefabAsset: {fileID: 0}
  m_GameObject: {fileID: 283054571348075146}
  m_LocalRotation: {x: 0, y: 0, z: 0, w: 1}
  m_LocalPosition: {x: 0, y: 0, z: 0}
  m_LocalScale: {x: 1, y: 1, z: 1}
  m_Children:
  - {fileID: 7060083596325606138}
  - {fileID: 283054571700247172}
  - {fileID: 6885058424638651662}
  - {fileID: 4066141521874250529}
  - {fileID: 1850248967780703281}
  - {fileID: 2038607584}
  - {fileID: 4722297833851169441}
  m_Father: {fileID: 0}
  m_RootOrder: 0
  m_LocalEulerAnglesHint: {x: 0, y: 0, z: 0}
--- !u!1 &672876125651324452
GameObject:
  m_ObjectHideFlags: 0
  m_CorrespondingSourceObject: {fileID: 0}
  m_PrefabInstance: {fileID: 0}
  m_PrefabAsset: {fileID: 0}
  serializedVersion: 6
  m_Component:
  - component: {fileID: 4722297833851169441}
  m_Layer: 0
  m_Name: Audio
  m_TagString: Untagged
  m_Icon: {fileID: 0}
  m_NavMeshLayer: 0
  m_StaticEditorFlags: 0
  m_IsActive: 1
--- !u!4 &4722297833851169441
Transform:
  m_ObjectHideFlags: 0
  m_CorrespondingSourceObject: {fileID: 0}
  m_PrefabInstance: {fileID: 0}
  m_PrefabAsset: {fileID: 0}
  m_GameObject: {fileID: 672876125651324452}
  m_LocalRotation: {x: 0, y: 0, z: 0, w: 1}
  m_LocalPosition: {x: 0, y: 0, z: 0}
  m_LocalScale: {x: 1, y: 1, z: 1}
  m_Children:
  - {fileID: 7043372546402769673}
  - {fileID: 4267020682432345461}
  m_Father: {fileID: 283054571348075145}
  m_RootOrder: 6
  m_LocalEulerAnglesHint: {x: 0, y: 0, z: 0}
--- !u!1 &693340726111614609
GameObject:
  m_ObjectHideFlags: 0
  m_CorrespondingSourceObject: {fileID: 0}
  m_PrefabInstance: {fileID: 0}
  m_PrefabAsset: {fileID: 0}
  serializedVersion: 6
  m_Component:
  - component: {fileID: 4066141521874250529}
  m_Layer: 0
  m_Name: CameraFollow
  m_TagString: Untagged
  m_Icon: {fileID: 0}
  m_NavMeshLayer: 0
  m_StaticEditorFlags: 0
  m_IsActive: 1
--- !u!4 &4066141521874250529
Transform:
  m_ObjectHideFlags: 0
  m_CorrespondingSourceObject: {fileID: 0}
  m_PrefabInstance: {fileID: 0}
  m_PrefabAsset: {fileID: 0}
  m_GameObject: {fileID: 693340726111614609}
  m_LocalRotation: {x: -0, y: -0.7071068, z: -0, w: 0.7071068}
  m_LocalPosition: {x: -32.508537, y: 4.185197, z: -17.47549}
  m_LocalScale: {x: 1, y: 1, z: 1}
  m_Children:
  - {fileID: 220419020542958658}
  m_Father: {fileID: 283054571348075145}
  m_RootOrder: 3
  m_LocalEulerAnglesHint: {x: 0, y: -90, z: 0}
--- !u!114 &2983523028586080607
MonoBehaviour:
  m_ObjectHideFlags: 0
  m_CorrespondingSourceObject: {fileID: 0}
  m_PrefabInstance: {fileID: 0}
  m_PrefabAsset: {fileID: 0}
  m_GameObject: {fileID: 3892571847533044674}
  m_Enabled: 1
  m_EditorHideFlags: 0
  m_Script: {fileID: 11500000, guid: 4d1b912e1054f094cbb5b4fee7ae07ca, type: 3}
  m_Name: 
  m_EditorClassIdentifier: 
  mixer: {fileID: 24100000, guid: 493ae36edf098924cae0ea5438245583, type: 2}
  slider: {fileID: 3892571847533044672}
  volume: SFX_Volume
  multiplier: 30
--- !u!114 &1644958910230929825
MonoBehaviour:
  m_ObjectHideFlags: 0
  m_CorrespondingSourceObject: {fileID: 0}
  m_PrefabInstance: {fileID: 0}
  m_PrefabAsset: {fileID: 0}
  m_GameObject: {fileID: 3892571848280766147}
  m_Enabled: 1
  m_EditorHideFlags: 0
  m_Script: {fileID: 11500000, guid: 4d1b912e1054f094cbb5b4fee7ae07ca, type: 3}
  m_Name: 
  m_EditorClassIdentifier: 
  mixer: {fileID: 24100000, guid: 493ae36edf098924cae0ea5438245583, type: 2}
  slider: {fileID: 3892571848280766145}
  volume: BG_Volume
  multiplier: 30
--- !u!1 &7189665899292034281
GameObject:
  m_ObjectHideFlags: 0
  m_CorrespondingSourceObject: {fileID: 0}
  m_PrefabInstance: {fileID: 0}
  m_PrefabAsset: {fileID: 0}
  serializedVersion: 6
  m_Component:
  - component: {fileID: 4267020682432345461}
  - component: {fileID: 3212253796504748920}
  m_Layer: 0
  m_Name: SFX_AudioSource
  m_TagString: Untagged
  m_Icon: {fileID: 0}
  m_NavMeshLayer: 0
  m_StaticEditorFlags: 0
  m_IsActive: 1
--- !u!4 &4267020682432345461
Transform:
  m_ObjectHideFlags: 0
  m_CorrespondingSourceObject: {fileID: 0}
  m_PrefabInstance: {fileID: 0}
  m_PrefabAsset: {fileID: 0}
  m_GameObject: {fileID: 7189665899292034281}
  m_LocalRotation: {x: 0, y: 0, z: 0, w: 1}
  m_LocalPosition: {x: 0, y: 0, z: 0}
  m_LocalScale: {x: 1, y: 1, z: 1}
  m_Children: []
  m_Father: {fileID: 4722297833851169441}
  m_RootOrder: 1
  m_LocalEulerAnglesHint: {x: 0, y: 0, z: 0}
--- !u!82 &3212253796504748920
AudioSource:
  m_ObjectHideFlags: 0
  m_CorrespondingSourceObject: {fileID: 0}
  m_PrefabInstance: {fileID: 0}
  m_PrefabAsset: {fileID: 0}
  m_GameObject: {fileID: 7189665899292034281}
  m_Enabled: 1
  serializedVersion: 4
  OutputAudioMixerGroup: {fileID: -3003948271650669231, guid: 493ae36edf098924cae0ea5438245583,
    type: 2}
  m_audioClip: {fileID: 0}
  m_PlayOnAwake: 0
  m_Volume: 1
  m_Pitch: 1
  Loop: 0
  Mute: 0
  Spatialize: 0
  SpatializePostEffects: 0
  Priority: 128
  DopplerLevel: 1
  MinDistance: 1
  MaxDistance: 500
  Pan2D: 0
  rolloffMode: 0
  BypassEffects: 0
  BypassListenerEffects: 0
  BypassReverbZones: 0
  rolloffCustomCurve:
    serializedVersion: 2
    m_Curve:
    - serializedVersion: 3
      time: 0
      value: 1
      inSlope: 0
      outSlope: 0
      tangentMode: 0
      weightedMode: 0
      inWeight: 0.33333334
      outWeight: 0.33333334
    - serializedVersion: 3
      time: 1
      value: 0
      inSlope: 0
      outSlope: 0
      tangentMode: 0
      weightedMode: 0
      inWeight: 0.33333334
      outWeight: 0.33333334
    m_PreInfinity: 2
    m_PostInfinity: 2
    m_RotationOrder: 4
  panLevelCustomCurve:
    serializedVersion: 2
    m_Curve:
    - serializedVersion: 3
      time: 0
      value: 0
      inSlope: 0
      outSlope: 0
      tangentMode: 0
      weightedMode: 0
      inWeight: 0.33333334
      outWeight: 0.33333334
    m_PreInfinity: 2
    m_PostInfinity: 2
    m_RotationOrder: 4
  spreadCustomCurve:
    serializedVersion: 2
    m_Curve:
    - serializedVersion: 3
      time: 0
      value: 0
      inSlope: 0
      outSlope: 0
      tangentMode: 0
      weightedMode: 0
      inWeight: 0.33333334
      outWeight: 0.33333334
    m_PreInfinity: 2
    m_PostInfinity: 2
    m_RotationOrder: 4
  reverbZoneMixCustomCurve:
    serializedVersion: 2
    m_Curve:
    - serializedVersion: 3
      time: 0
      value: 1
      inSlope: 0
      outSlope: 0
      tangentMode: 0
      weightedMode: 0
      inWeight: 0.33333334
      outWeight: 0.33333334
    m_PreInfinity: 2
    m_PostInfinity: 2
    m_RotationOrder: 4
--- !u!1 &7443813137098357202
GameObject:
  m_ObjectHideFlags: 0
  m_CorrespondingSourceObject: {fileID: 0}
  m_PrefabInstance: {fileID: 0}
  m_PrefabAsset: {fileID: 0}
  serializedVersion: 6
  m_Component:
  - component: {fileID: 7043372546402769673}
  - component: {fileID: 8300303249345266377}
  m_Layer: 0
  m_Name: BG_AudioSource
  m_TagString: Untagged
  m_Icon: {fileID: 0}
  m_NavMeshLayer: 0
  m_StaticEditorFlags: 0
  m_IsActive: 1
--- !u!4 &7043372546402769673
Transform:
  m_ObjectHideFlags: 0
  m_CorrespondingSourceObject: {fileID: 0}
  m_PrefabInstance: {fileID: 0}
  m_PrefabAsset: {fileID: 0}
  m_GameObject: {fileID: 7443813137098357202}
  m_LocalRotation: {x: 0, y: 0, z: 0, w: 1}
  m_LocalPosition: {x: 0, y: 0, z: 0}
  m_LocalScale: {x: 1, y: 1, z: 1}
  m_Children: []
  m_Father: {fileID: 4722297833851169441}
  m_RootOrder: 0
  m_LocalEulerAnglesHint: {x: 0, y: 0, z: 0}
--- !u!82 &8300303249345266377
AudioSource:
  m_ObjectHideFlags: 0
  m_CorrespondingSourceObject: {fileID: 0}
  m_PrefabInstance: {fileID: 0}
  m_PrefabAsset: {fileID: 0}
  m_GameObject: {fileID: 7443813137098357202}
  m_Enabled: 1
  serializedVersion: 4
  OutputAudioMixerGroup: {fileID: 24300002, guid: 493ae36edf098924cae0ea5438245583,
    type: 2}
  m_audioClip: {fileID: 0}
  m_PlayOnAwake: 1
  m_Volume: 1
  m_Pitch: 1
  Loop: 1
  Mute: 0
  Spatialize: 0
  SpatializePostEffects: 0
  Priority: 128
  DopplerLevel: 1
  MinDistance: 1
  MaxDistance: 500
  Pan2D: 0
  rolloffMode: 0
  BypassEffects: 0
  BypassListenerEffects: 0
  BypassReverbZones: 0
  rolloffCustomCurve:
    serializedVersion: 2
    m_Curve:
    - serializedVersion: 3
      time: 0
      value: 1
      inSlope: 0
      outSlope: 0
      tangentMode: 0
      weightedMode: 0
      inWeight: 0.33333334
      outWeight: 0.33333334
    - serializedVersion: 3
      time: 1
      value: 0
      inSlope: 0
      outSlope: 0
      tangentMode: 0
      weightedMode: 0
      inWeight: 0.33333334
      outWeight: 0.33333334
    m_PreInfinity: 2
    m_PostInfinity: 2
    m_RotationOrder: 4
  panLevelCustomCurve:
    serializedVersion: 2
    m_Curve:
    - serializedVersion: 3
      time: 0
      value: 0
      inSlope: 0
      outSlope: 0
      tangentMode: 0
      weightedMode: 0
      inWeight: 0.33333334
      outWeight: 0.33333334
    m_PreInfinity: 2
    m_PostInfinity: 2
    m_RotationOrder: 4
  spreadCustomCurve:
    serializedVersion: 2
    m_Curve:
    - serializedVersion: 3
      time: 0
      value: 0
      inSlope: 0
      outSlope: 0
      tangentMode: 0
      weightedMode: 0
      inWeight: 0.33333334
      outWeight: 0.33333334
    m_PreInfinity: 2
    m_PostInfinity: 2
    m_RotationOrder: 4
  reverbZoneMixCustomCurve:
    serializedVersion: 2
    m_Curve:
    - serializedVersion: 3
      time: 0
      value: 1
      inSlope: 0
      outSlope: 0
      tangentMode: 0
      weightedMode: 0
      inWeight: 0.33333334
      outWeight: 0.33333334
    m_PreInfinity: 2
    m_PostInfinity: 2
    m_RotationOrder: 4
--- !u!1001 &1281885831285376969
PrefabInstance:
  m_ObjectHideFlags: 0
  serializedVersion: 2
  m_Modification:
    m_TransformParent: {fileID: 283054571348075145}
    m_Modifications:
    - target: {fileID: 1008940114426249392, guid: a130d4401e4fbfc4f8db75b60d0cab45,
        type: 3}
      propertyPath: m_OnClick.m_PersistentCalls.m_Calls.Array.data[2].m_Target
      value: 
      objectReference: {fileID: 2238488753966482338}
    - target: {fileID: 2049484527655607801, guid: a130d4401e4fbfc4f8db75b60d0cab45,
        type: 3}
      propertyPath: m_OnClick.m_PersistentCalls.m_Calls.Array.data[2].m_Target
      value: 
      objectReference: {fileID: 2238488753966482338}
    - target: {fileID: 2868543543326778377, guid: a130d4401e4fbfc4f8db75b60d0cab45,
        type: 3}
      propertyPath: m_OnValueChanged.m_PersistentCalls.m_Calls.Array.data[0].m_Target
      value: 
      objectReference: {fileID: 0}
    - target: {fileID: 2868543544609141000, guid: a130d4401e4fbfc4f8db75b60d0cab45,
        type: 3}
      propertyPath: m_OnValueChanged.m_PersistentCalls.m_Calls.Array.data[0].m_Target
      value: 
      objectReference: {fileID: 0}
    - target: {fileID: 2868543544906688238, guid: a130d4401e4fbfc4f8db75b60d0cab45,
        type: 3}
      propertyPath: m_OnClick.m_PersistentCalls.m_Calls.Array.data[0].m_Target
      value: 
      objectReference: {fileID: 283054571700247170}
    - target: {fileID: 4496701184858212557, guid: a130d4401e4fbfc4f8db75b60d0cab45,
        type: 3}
      propertyPath: m_OnClick.m_PersistentCalls.m_Calls.Array.data[0].m_Target
      value: 
      objectReference: {fileID: 283054571700247167}
    - target: {fileID: 5640345630257951595, guid: a130d4401e4fbfc4f8db75b60d0cab45,
        type: 3}
      propertyPath: m_OnClick.m_PersistentCalls.m_Calls.Array.data[0].m_Target
      value: 
      objectReference: {fileID: 283054571700247168}
    - target: {fileID: 5640345630257951595, guid: a130d4401e4fbfc4f8db75b60d0cab45,
        type: 3}
      propertyPath: m_OnClick.m_PersistentCalls.m_Calls.Array.data[1].m_Target
      value: 
      objectReference: {fileID: 8074023068032893441}
    - target: {fileID: 5640345630394497719, guid: a130d4401e4fbfc4f8db75b60d0cab45,
        type: 3}
      propertyPath: m_OnClick.m_PersistentCalls.m_Calls.Array.data[0].m_Target
      value: 
      objectReference: {fileID: 283054571700247168}
    - target: {fileID: 5640345630394497719, guid: a130d4401e4fbfc4f8db75b60d0cab45,
        type: 3}
      propertyPath: m_OnClick.m_PersistentCalls.m_Calls.Array.data[1].m_Target
      value: 
      objectReference: {fileID: 8074023068032893441}
    - target: {fileID: 5640345630596605000, guid: a130d4401e4fbfc4f8db75b60d0cab45,
        type: 3}
      propertyPath: m_OnClick.m_PersistentCalls.m_Calls.Array.data[0].m_Target
      value: 
      objectReference: {fileID: 283054571700247168}
    - target: {fileID: 5640345630596605000, guid: a130d4401e4fbfc4f8db75b60d0cab45,
        type: 3}
      propertyPath: m_OnClick.m_PersistentCalls.m_Calls.Array.data[1].m_Target
      value: 
      objectReference: {fileID: 283054571700247168}
    - target: {fileID: 5640345630727260571, guid: a130d4401e4fbfc4f8db75b60d0cab45,
        type: 3}
      propertyPath: m_OnClick.m_PersistentCalls.m_Calls.Array.data[0].m_Target
      value: 
      objectReference: {fileID: 283054571700247167}
    - target: {fileID: 5640345630727260571, guid: a130d4401e4fbfc4f8db75b60d0cab45,
        type: 3}
      propertyPath: m_OnClick.m_PersistentCalls.m_Calls.Array.data[1].m_Target
      value: 
      objectReference: {fileID: 283054571700247167}
    - target: {fileID: 5640345630727260571, guid: a130d4401e4fbfc4f8db75b60d0cab45,
        type: 3}
      propertyPath: m_OnClick.m_PersistentCalls.m_Calls.Array.data[2].m_Target
      value: 
      objectReference: {fileID: 283054571700247167}
    - target: {fileID: 5640345630800826942, guid: a130d4401e4fbfc4f8db75b60d0cab45,
        type: 3}
      propertyPath: m_OnClick.m_PersistentCalls.m_Calls.Array.data[0].m_Target
      value: 
      objectReference: {fileID: 283054571700247168}
    - target: {fileID: 5640345630800826942, guid: a130d4401e4fbfc4f8db75b60d0cab45,
        type: 3}
      propertyPath: m_OnClick.m_PersistentCalls.m_Calls.Array.data[1].m_Target
      value: 
      objectReference: {fileID: 283054571700247168}
    - target: {fileID: 5640345630827600381, guid: a130d4401e4fbfc4f8db75b60d0cab45,
        type: 3}
      propertyPath: m_OnClick.m_PersistentCalls.m_Calls.Array.data[0].m_Target
      value: 
      objectReference: {fileID: 283054571700247167}
    - target: {fileID: 5640345630827600381, guid: a130d4401e4fbfc4f8db75b60d0cab45,
        type: 3}
      propertyPath: m_OnClick.m_PersistentCalls.m_Calls.Array.data[1].m_Target
      value: 
      objectReference: {fileID: 283054571700247167}
    - target: {fileID: 5640345630827600381, guid: a130d4401e4fbfc4f8db75b60d0cab45,
        type: 3}
      propertyPath: m_OnClick.m_PersistentCalls.m_Calls.Array.data[2].m_Target
      value: 
      objectReference: {fileID: 283054571700247167}
    - target: {fileID: 5640345630866586307, guid: a130d4401e4fbfc4f8db75b60d0cab45,
        type: 3}
      propertyPath: m_Name
      value: Canvas (1)
      objectReference: {fileID: 0}
    - target: {fileID: 5640345630866586311, guid: a130d4401e4fbfc4f8db75b60d0cab45,
        type: 3}
      propertyPath: m_Pivot.x
      value: 0
      objectReference: {fileID: 0}
    - target: {fileID: 5640345630866586311, guid: a130d4401e4fbfc4f8db75b60d0cab45,
        type: 3}
      propertyPath: m_Pivot.y
      value: 0
      objectReference: {fileID: 0}
    - target: {fileID: 5640345630866586311, guid: a130d4401e4fbfc4f8db75b60d0cab45,
        type: 3}
      propertyPath: m_RootOrder
      value: 2
      objectReference: {fileID: 0}
    - target: {fileID: 5640345630866586311, guid: a130d4401e4fbfc4f8db75b60d0cab45,
        type: 3}
      propertyPath: m_AnchorMax.x
      value: 0
      objectReference: {fileID: 0}
    - target: {fileID: 5640345630866586311, guid: a130d4401e4fbfc4f8db75b60d0cab45,
        type: 3}
      propertyPath: m_AnchorMax.y
      value: 0
      objectReference: {fileID: 0}
    - target: {fileID: 5640345630866586311, guid: a130d4401e4fbfc4f8db75b60d0cab45,
        type: 3}
      propertyPath: m_AnchorMin.x
      value: 0
      objectReference: {fileID: 0}
    - target: {fileID: 5640345630866586311, guid: a130d4401e4fbfc4f8db75b60d0cab45,
        type: 3}
      propertyPath: m_AnchorMin.y
      value: 0
      objectReference: {fileID: 0}
    - target: {fileID: 5640345630866586311, guid: a130d4401e4fbfc4f8db75b60d0cab45,
        type: 3}
      propertyPath: m_SizeDelta.x
      value: 0
      objectReference: {fileID: 0}
    - target: {fileID: 5640345630866586311, guid: a130d4401e4fbfc4f8db75b60d0cab45,
        type: 3}
      propertyPath: m_SizeDelta.y
      value: 0
      objectReference: {fileID: 0}
    - target: {fileID: 5640345630866586311, guid: a130d4401e4fbfc4f8db75b60d0cab45,
        type: 3}
      propertyPath: m_LocalPosition.x
      value: 0
      objectReference: {fileID: 0}
    - target: {fileID: 5640345630866586311, guid: a130d4401e4fbfc4f8db75b60d0cab45,
        type: 3}
      propertyPath: m_LocalPosition.y
      value: 0
      objectReference: {fileID: 0}
    - target: {fileID: 5640345630866586311, guid: a130d4401e4fbfc4f8db75b60d0cab45,
        type: 3}
      propertyPath: m_LocalPosition.z
      value: 0
      objectReference: {fileID: 0}
    - target: {fileID: 5640345630866586311, guid: a130d4401e4fbfc4f8db75b60d0cab45,
        type: 3}
      propertyPath: m_LocalRotation.w
      value: 1
      objectReference: {fileID: 0}
    - target: {fileID: 5640345630866586311, guid: a130d4401e4fbfc4f8db75b60d0cab45,
        type: 3}
      propertyPath: m_LocalRotation.x
      value: 0
      objectReference: {fileID: 0}
    - target: {fileID: 5640345630866586311, guid: a130d4401e4fbfc4f8db75b60d0cab45,
        type: 3}
      propertyPath: m_LocalRotation.y
      value: 0
      objectReference: {fileID: 0}
    - target: {fileID: 5640345630866586311, guid: a130d4401e4fbfc4f8db75b60d0cab45,
        type: 3}
      propertyPath: m_LocalRotation.z
      value: 0
      objectReference: {fileID: 0}
    - target: {fileID: 5640345630866586311, guid: a130d4401e4fbfc4f8db75b60d0cab45,
        type: 3}
      propertyPath: m_AnchoredPosition.x
      value: 0
      objectReference: {fileID: 0}
    - target: {fileID: 5640345630866586311, guid: a130d4401e4fbfc4f8db75b60d0cab45,
        type: 3}
      propertyPath: m_AnchoredPosition.y
      value: 0
      objectReference: {fileID: 0}
    - target: {fileID: 5640345630866586311, guid: a130d4401e4fbfc4f8db75b60d0cab45,
        type: 3}
      propertyPath: m_LocalEulerAnglesHint.x
      value: 0
      objectReference: {fileID: 0}
    - target: {fileID: 5640345630866586311, guid: a130d4401e4fbfc4f8db75b60d0cab45,
        type: 3}
      propertyPath: m_LocalEulerAnglesHint.y
      value: 0
      objectReference: {fileID: 0}
    - target: {fileID: 5640345630866586311, guid: a130d4401e4fbfc4f8db75b60d0cab45,
        type: 3}
      propertyPath: m_LocalEulerAnglesHint.z
      value: 0
      objectReference: {fileID: 0}
    - target: {fileID: 5640345630978220057, guid: a130d4401e4fbfc4f8db75b60d0cab45,
        type: 3}
      propertyPath: m_OnClick.m_PersistentCalls.m_Calls.Array.data[0].m_Target
      value: 
      objectReference: {fileID: 283054571700247168}
    - target: {fileID: 5640345630978220057, guid: a130d4401e4fbfc4f8db75b60d0cab45,
        type: 3}
      propertyPath: m_OnClick.m_PersistentCalls.m_Calls.Array.data[1].m_Target
      value: 
      objectReference: {fileID: 8074023068032893441}
    - target: {fileID: 5640345630985661365, guid: a130d4401e4fbfc4f8db75b60d0cab45,
        type: 3}
      propertyPath: m_OnClick.m_PersistentCalls.m_Calls.Array.data[0].m_Target
      value: 
      objectReference: {fileID: 283054571700247168}
    - target: {fileID: 5640345630985661365, guid: a130d4401e4fbfc4f8db75b60d0cab45,
        type: 3}
      propertyPath: m_OnClick.m_PersistentCalls.m_Calls.Array.data[1].m_Target
      value: 
      objectReference: {fileID: 283054571700247168}
    - target: {fileID: 5640345630988673762, guid: a130d4401e4fbfc4f8db75b60d0cab45,
        type: 3}
      propertyPath: m_OnClick.m_PersistentCalls.m_Calls.Array.data[0].m_Target
      value: 
      objectReference: {fileID: 283054571700247168}
    - target: {fileID: 5640345630988673762, guid: a130d4401e4fbfc4f8db75b60d0cab45,
        type: 3}
      propertyPath: m_OnClick.m_PersistentCalls.m_Calls.Array.data[1].m_Target
      value: 
      objectReference: {fileID: 8074023068032893441}
    - target: {fileID: 5640345631010697566, guid: a130d4401e4fbfc4f8db75b60d0cab45,
        type: 3}
      propertyPath: m_OnClick.m_PersistentCalls.m_Calls.Array.data[0].m_Target
      value: 
      objectReference: {fileID: 283054571700247167}
    - target: {fileID: 5640345631010697566, guid: a130d4401e4fbfc4f8db75b60d0cab45,
        type: 3}
      propertyPath: m_OnClick.m_PersistentCalls.m_Calls.Array.data[1].m_Target
      value: 
      objectReference: {fileID: 283054571700247167}
    - target: {fileID: 5640345631010697566, guid: a130d4401e4fbfc4f8db75b60d0cab45,
        type: 3}
      propertyPath: m_OnClick.m_PersistentCalls.m_Calls.Array.data[2].m_Target
      value: 
      objectReference: {fileID: 283054571700247167}
    - target: {fileID: 5640345631171936227, guid: a130d4401e4fbfc4f8db75b60d0cab45,
        type: 3}
      propertyPath: m_OnClick.m_PersistentCalls.m_Calls.Array.data[0].m_Target
      value: 
      objectReference: {fileID: 283054571700247168}
    - target: {fileID: 5640345631171936227, guid: a130d4401e4fbfc4f8db75b60d0cab45,
        type: 3}
      propertyPath: m_OnClick.m_PersistentCalls.m_Calls.Array.data[1].m_Target
      value: 
      objectReference: {fileID: 283054571700247168}
    - target: {fileID: 5640345631354985510, guid: a130d4401e4fbfc4f8db75b60d0cab45,
        type: 3}
      propertyPath: m_OnClick.m_PersistentCalls.m_Calls.Array.data[0].m_Target
      value: 
      objectReference: {fileID: 283054571700247167}
    - target: {fileID: 5640345631354985510, guid: a130d4401e4fbfc4f8db75b60d0cab45,
        type: 3}
      propertyPath: m_OnClick.m_PersistentCalls.m_Calls.Array.data[1].m_Target
      value: 
      objectReference: {fileID: 283054571700247167}
    - target: {fileID: 5640345631354985510, guid: a130d4401e4fbfc4f8db75b60d0cab45,
        type: 3}
      propertyPath: m_OnClick.m_PersistentCalls.m_Calls.Array.data[2].m_Target
      value: 
      objectReference: {fileID: 283054571700247167}
    - target: {fileID: 5640345631452958804, guid: a130d4401e4fbfc4f8db75b60d0cab45,
        type: 3}
      propertyPath: m_OnClick.m_PersistentCalls.m_Calls.Array.data[0].m_Target
      value: 
      objectReference: {fileID: 283054571700247167}
    - target: {fileID: 5640345631452958804, guid: a130d4401e4fbfc4f8db75b60d0cab45,
        type: 3}
      propertyPath: m_OnClick.m_PersistentCalls.m_Calls.Array.data[1].m_Target
      value: 
      objectReference: {fileID: 283054571700247167}
    - target: {fileID: 5640345631452958804, guid: a130d4401e4fbfc4f8db75b60d0cab45,
        type: 3}
      propertyPath: m_OnClick.m_PersistentCalls.m_Calls.Array.data[2].m_Target
      value: 
      objectReference: {fileID: 283054571700247167}
    - target: {fileID: 5640345631781793841, guid: a130d4401e4fbfc4f8db75b60d0cab45,
        type: 3}
      propertyPath: m_OnClick.m_PersistentCalls.m_Calls.Array.data[0].m_Target
      value: 
      objectReference: {fileID: 283054571700247167}
    - target: {fileID: 5640345631781793841, guid: a130d4401e4fbfc4f8db75b60d0cab45,
        type: 3}
      propertyPath: m_OnClick.m_PersistentCalls.m_Calls.Array.data[1].m_Target
      value: 
      objectReference: {fileID: 283054571700247167}
    - target: {fileID: 5640345631868553325, guid: a130d4401e4fbfc4f8db75b60d0cab45,
        type: 3}
      propertyPath: m_OnClick.m_PersistentCalls.m_Calls.Array.data[0].m_Target
      value: 
      objectReference: {fileID: 283054571700247168}
    - target: {fileID: 5640345631868553325, guid: a130d4401e4fbfc4f8db75b60d0cab45,
        type: 3}
      propertyPath: m_OnClick.m_PersistentCalls.m_Calls.Array.data[1].m_Target
      value: 
      objectReference: {fileID: 8074023068032893441}
    - target: {fileID: 5640345631904531030, guid: a130d4401e4fbfc4f8db75b60d0cab45,
        type: 3}
      propertyPath: m_OnClick.m_PersistentCalls.m_Calls.Array.data[0].m_Target
      value: 
      objectReference: {fileID: 283054571700247168}
    - target: {fileID: 5640345631904531030, guid: a130d4401e4fbfc4f8db75b60d0cab45,
        type: 3}
      propertyPath: m_OnClick.m_PersistentCalls.m_Calls.Array.data[1].m_Target
      value: 
      objectReference: {fileID: 283054571700247168}
    - target: {fileID: 5640345632006889507, guid: a130d4401e4fbfc4f8db75b60d0cab45,
        type: 3}
      propertyPath: m_OnClick.m_PersistentCalls.m_Calls.Array.data[0].m_Target
      value: 
      objectReference: {fileID: 283054571700247168}
    - target: {fileID: 5640345632006889507, guid: a130d4401e4fbfc4f8db75b60d0cab45,
        type: 3}
      propertyPath: m_OnClick.m_PersistentCalls.m_Calls.Array.data[1].m_Target
      value: 
      objectReference: {fileID: 283054571700247168}
    - target: {fileID: 5640345632099000052, guid: a130d4401e4fbfc4f8db75b60d0cab45,
        type: 3}
      propertyPath: m_OnClick.m_PersistentCalls.m_Calls.Array.data[0].m_Target
      value: 
      objectReference: {fileID: 283054571700247168}
    - target: {fileID: 5640345632099000052, guid: a130d4401e4fbfc4f8db75b60d0cab45,
        type: 3}
      propertyPath: m_OnClick.m_PersistentCalls.m_Calls.Array.data[1].m_Target
      value: 
      objectReference: {fileID: 8074023068032893441}
    m_RemovedComponents:
    - {fileID: 2868543543574969956, guid: a130d4401e4fbfc4f8db75b60d0cab45, type: 3}
  m_SourcePrefab: {fileID: 100100000, guid: a130d4401e4fbfc4f8db75b60d0cab45, type: 3}
--- !u!114 &6885058426120916732 stripped
MonoBehaviour:
  m_CorrespondingSourceObject: {fileID: 5640345631280089397, guid: a130d4401e4fbfc4f8db75b60d0cab45,
    type: 3}
  m_PrefabInstance: {fileID: 1281885831285376969}
  m_PrefabAsset: {fileID: 0}
  m_GameObject: {fileID: 0}
  m_Enabled: 1
  m_EditorHideFlags: 0
  m_Script: {fileID: 11500000, guid: 5f7201a12d95ffc409449d95f23cf332, type: 3}
  m_Name: 
  m_EditorClassIdentifier: 
--- !u!114 &6885058425230866079 stripped
MonoBehaviour:
  m_CorrespondingSourceObject: {fileID: 5640345630391742806, guid: a130d4401e4fbfc4f8db75b60d0cab45,
    type: 3}
  m_PrefabInstance: {fileID: 1281885831285376969}
  m_PrefabAsset: {fileID: 0}
  m_GameObject: {fileID: 0}
  m_Enabled: 1
  m_EditorHideFlags: 0
  m_Script: {fileID: 11500000, guid: 5f7201a12d95ffc409449d95f23cf332, type: 3}
  m_Name: 
  m_EditorClassIdentifier: 
--- !u!114 &6885058424565945847 stripped
MonoBehaviour:
  m_CorrespondingSourceObject: {fileID: 5640345630800826942, guid: a130d4401e4fbfc4f8db75b60d0cab45,
    type: 3}
  m_PrefabInstance: {fileID: 1281885831285376969}
  m_PrefabAsset: {fileID: 0}
  m_GameObject: {fileID: 0}
  m_Enabled: 1
  m_EditorHideFlags: 0
  m_Script: {fileID: 11500000, guid: 4e29b1a8efbd4b44bb3f3716e73f07ff, type: 3}
  m_Name: 
  m_EditorClassIdentifier: 
--- !u!114 &6885058426041556583 stripped
MonoBehaviour:
  m_CorrespondingSourceObject: {fileID: 5640345631741139374, guid: a130d4401e4fbfc4f8db75b60d0cab45,
    type: 3}
  m_PrefabInstance: {fileID: 1281885831285376969}
  m_PrefabAsset: {fileID: 0}
  m_GameObject: {fileID: 0}
  m_Enabled: 1
  m_EditorHideFlags: 0
  m_Script: {fileID: 11500000, guid: 5f7201a12d95ffc409449d95f23cf332, type: 3}
  m_Name: 
  m_EditorClassIdentifier: 
--- !u!114 &6885058424908555137 stripped
MonoBehaviour:
  m_CorrespondingSourceObject: {fileID: 5640345630596605000, guid: a130d4401e4fbfc4f8db75b60d0cab45,
    type: 3}
  m_PrefabInstance: {fileID: 1281885831285376969}
  m_PrefabAsset: {fileID: 0}
  m_GameObject: {fileID: 0}
  m_Enabled: 1
  m_EditorHideFlags: 0
  m_Script: {fileID: 11500000, guid: 4e29b1a8efbd4b44bb3f3716e73f07ff, type: 3}
  m_Name: 
  m_EditorClassIdentifier: 
--- !u!114 &6885058426212939879 stripped
MonoBehaviour:
  m_CorrespondingSourceObject: {fileID: 5640345631372640174, guid: a130d4401e4fbfc4f8db75b60d0cab45,
    type: 3}
  m_PrefabInstance: {fileID: 1281885831285376969}
  m_PrefabAsset: {fileID: 0}
  m_GameObject: {fileID: 0}
  m_Enabled: 1
  m_EditorHideFlags: 0
  m_Script: {fileID: 11500000, guid: 5f7201a12d95ffc409449d95f23cf332, type: 3}
  m_Name: 
  m_EditorClassIdentifier: 
--- !u!114 &6885058425780004842 stripped
MonoBehaviour:
  m_CorrespondingSourceObject: {fileID: 5640345632006889507, guid: a130d4401e4fbfc4f8db75b60d0cab45,
    type: 3}
  m_PrefabInstance: {fileID: 1281885831285376969}
  m_PrefabAsset: {fileID: 0}
  m_GameObject: {fileID: 0}
  m_Enabled: 1
  m_EditorHideFlags: 0
  m_Script: {fileID: 11500000, guid: 4e29b1a8efbd4b44bb3f3716e73f07ff, type: 3}
  m_Name: 
  m_EditorClassIdentifier: 
--- !u!114 &6885058425029485490 stripped
MonoBehaviour:
  m_CorrespondingSourceObject: {fileID: 5640345630190494843, guid: a130d4401e4fbfc4f8db75b60d0cab45,
    type: 3}
  m_PrefabInstance: {fileID: 1281885831285376969}
  m_PrefabAsset: {fileID: 0}
  m_GameObject: {fileID: 0}
  m_Enabled: 1
  m_EditorHideFlags: 0
  m_Script: {fileID: 11500000, guid: 5f7201a12d95ffc409449d95f23cf332, type: 3}
  m_Name: 
  m_EditorClassIdentifier: 
--- !u!114 &6885058425676858783 stripped
MonoBehaviour:
  m_CorrespondingSourceObject: {fileID: 5640345631904531030, guid: a130d4401e4fbfc4f8db75b60d0cab45,
    type: 3}
  m_PrefabInstance: {fileID: 1281885831285376969}
  m_PrefabAsset: {fileID: 0}
  m_GameObject: {fileID: 0}
  m_Enabled: 1
  m_EditorHideFlags: 0
  m_Script: {fileID: 11500000, guid: 4e29b1a8efbd4b44bb3f3716e73f07ff, type: 3}
  m_Name: 
  m_EditorClassIdentifier: 
--- !u!114 &6885058425604549348 stripped
MonoBehaviour:
  m_CorrespondingSourceObject: {fileID: 5640345631829994797, guid: a130d4401e4fbfc4f8db75b60d0cab45,
    type: 3}
  m_PrefabInstance: {fileID: 1281885831285376969}
  m_PrefabAsset: {fileID: 0}
  m_GameObject: {fileID: 0}
  m_Enabled: 1
  m_EditorHideFlags: 0
  m_Script: {fileID: 11500000, guid: 5f7201a12d95ffc409449d95f23cf332, type: 3}
  m_Name: 
  m_EditorClassIdentifier: 
--- !u!114 &6885058424227145003 stripped
MonoBehaviour:
  m_CorrespondingSourceObject: {fileID: 5640345630988673762, guid: a130d4401e4fbfc4f8db75b60d0cab45,
    type: 3}
  m_PrefabInstance: {fileID: 1281885831285376969}
  m_PrefabAsset: {fileID: 0}
  m_GameObject: {fileID: 0}
  m_Enabled: 1
  m_EditorHideFlags: 0
  m_Script: {fileID: 11500000, guid: 4e29b1a8efbd4b44bb3f3716e73f07ff, type: 3}
  m_Name: 
  m_EditorClassIdentifier: 
--- !u!114 &6885058424383485499 stripped
MonoBehaviour:
  m_CorrespondingSourceObject: {fileID: 5640345631155237362, guid: a130d4401e4fbfc4f8db75b60d0cab45,
    type: 3}
  m_PrefabInstance: {fileID: 1281885831285376969}
  m_PrefabAsset: {fileID: 0}
  m_GameObject: {fileID: 0}
  m_Enabled: 1
  m_EditorHideFlags: 0
  m_Script: {fileID: 11500000, guid: 5f7201a12d95ffc409449d95f23cf332, type: 3}
  m_Name: 
  m_EditorClassIdentifier: 
--- !u!114 &6885058425240698238 stripped
MonoBehaviour:
  m_CorrespondingSourceObject: {fileID: 5640345630394497719, guid: a130d4401e4fbfc4f8db75b60d0cab45,
    type: 3}
  m_PrefabInstance: {fileID: 1281885831285376969}
  m_PrefabAsset: {fileID: 0}
  m_GameObject: {fileID: 0}
  m_Enabled: 1
  m_EditorHideFlags: 0
  m_Script: {fileID: 11500000, guid: 4e29b1a8efbd4b44bb3f3716e73f07ff, type: 3}
  m_Name: 
  m_EditorClassIdentifier: 
--- !u!114 &6885058425547962360 stripped
MonoBehaviour:
  m_CorrespondingSourceObject: {fileID: 5640345631781793841, guid: a130d4401e4fbfc4f8db75b60d0cab45,
    type: 3}
  m_PrefabInstance: {fileID: 1281885831285376969}
  m_PrefabAsset: {fileID: 0}
  m_GameObject: {fileID: 0}
  m_Enabled: 1
  m_EditorHideFlags: 0
  m_Script: {fileID: 11500000, guid: 4e29b1a8efbd4b44bb3f3716e73f07ff, type: 3}
  m_Name: 
  m_EditorClassIdentifier: 
--- !u!114 &6885058425096287394 stripped
MonoBehaviour:
  m_CorrespondingSourceObject: {fileID: 5640345630257951595, guid: a130d4401e4fbfc4f8db75b60d0cab45,
    type: 3}
  m_PrefabInstance: {fileID: 1281885831285376969}
  m_PrefabAsset: {fileID: 0}
  m_GameObject: {fileID: 0}
  m_Enabled: 1
  m_EditorHideFlags: 0
  m_Script: {fileID: 11500000, guid: 4e29b1a8efbd4b44bb3f3716e73f07ff, type: 3}
  m_Name: 
  m_EditorClassIdentifier: 
--- !u!114 &6885058425842050730 stripped
MonoBehaviour:
  m_CorrespondingSourceObject: {fileID: 5640345631542157667, guid: a130d4401e4fbfc4f8db75b60d0cab45,
    type: 3}
  m_PrefabInstance: {fileID: 1281885831285376969}
  m_PrefabAsset: {fileID: 0}
  m_GameObject: {fileID: 0}
  m_Enabled: 1
  m_EditorHideFlags: 0
  m_Script: {fileID: 11500000, guid: 5f7201a12d95ffc409449d95f23cf332, type: 3}
  m_Name: 
  m_EditorClassIdentifier: 
--- !u!114 &6885058425335634237 stripped
MonoBehaviour:
  m_CorrespondingSourceObject: {fileID: 5640345632099000052, guid: a130d4401e4fbfc4f8db75b60d0cab45,
    type: 3}
  m_PrefabInstance: {fileID: 1281885831285376969}
  m_PrefabAsset: {fileID: 0}
  m_GameObject: {fileID: 0}
  m_Enabled: 1
  m_EditorHideFlags: 0
  m_Script: {fileID: 11500000, guid: 4e29b1a8efbd4b44bb3f3716e73f07ff, type: 3}
  m_Name: 
  m_EditorClassIdentifier: 
--- !u!114 &6885058426260919315 stripped
MonoBehaviour:
  m_CorrespondingSourceObject: {fileID: 5640345631421141978, guid: a130d4401e4fbfc4f8db75b60d0cab45,
    type: 3}
  m_PrefabInstance: {fileID: 1281885831285376969}
  m_PrefabAsset: {fileID: 0}
  m_GameObject: {fileID: 0}
  m_Enabled: 1
  m_EditorHideFlags: 0
  m_Script: {fileID: 11500000, guid: 5f7201a12d95ffc409449d95f23cf332, type: 3}
  m_Name: 
  m_EditorClassIdentifier: 
--- !u!114 &6885058425633148836 stripped
MonoBehaviour:
  m_CorrespondingSourceObject: {fileID: 5640345631868553325, guid: a130d4401e4fbfc4f8db75b60d0cab45,
    type: 3}
  m_PrefabInstance: {fileID: 1281885831285376969}
  m_PrefabAsset: {fileID: 0}
  m_GameObject: {fileID: 0}
  m_Enabled: 1
  m_EditorHideFlags: 0
  m_Script: {fileID: 11500000, guid: 4e29b1a8efbd4b44bb3f3716e73f07ff, type: 3}
  m_Name: 
  m_EditorClassIdentifier: 
--- !u!114 &6885058425739027025 stripped
MonoBehaviour:
  m_CorrespondingSourceObject: {fileID: 5640345631963948440, guid: a130d4401e4fbfc4f8db75b60d0cab45,
    type: 3}
  m_PrefabInstance: {fileID: 1281885831285376969}
  m_PrefabAsset: {fileID: 0}
  m_GameObject: {fileID: 0}
  m_Enabled: 1
  m_EditorHideFlags: 0
  m_Script: {fileID: 11500000, guid: 5f7201a12d95ffc409449d95f23cf332, type: 3}
  m_Name: 
  m_EditorClassIdentifier: 
--- !u!114 &6885058424208173008 stripped
MonoBehaviour:
  m_CorrespondingSourceObject: {fileID: 5640345630978220057, guid: a130d4401e4fbfc4f8db75b60d0cab45,
    type: 3}
  m_PrefabInstance: {fileID: 1281885831285376969}
  m_PrefabAsset: {fileID: 0}
  m_GameObject: {fileID: 0}
  m_Enabled: 1
  m_EditorHideFlags: 0
  m_Script: {fileID: 11500000, guid: 4e29b1a8efbd4b44bb3f3716e73f07ff, type: 3}
  m_Name: 
  m_EditorClassIdentifier: 
--- !u!114 &6885058425336278505 stripped
MonoBehaviour:
  m_CorrespondingSourceObject: {fileID: 5640345632098331168, guid: a130d4401e4fbfc4f8db75b60d0cab45,
    type: 3}
  m_PrefabInstance: {fileID: 1281885831285376969}
  m_PrefabAsset: {fileID: 0}
  m_GameObject: {fileID: 0}
  m_Enabled: 1
  m_EditorHideFlags: 0
  m_Script: {fileID: 11500000, guid: 5f7201a12d95ffc409449d95f23cf332, type: 3}
  m_Name: 
  m_EditorClassIdentifier: 
--- !u!1 &3892571848280766147 stripped
GameObject:
  m_CorrespondingSourceObject: {fileID: 2868543544609141002, guid: a130d4401e4fbfc4f8db75b60d0cab45,
    type: 3}
  m_PrefabInstance: {fileID: 1281885831285376969}
  m_PrefabAsset: {fileID: 0}
--- !u!114 &3892571848280766145 stripped
MonoBehaviour:
  m_CorrespondingSourceObject: {fileID: 2868543544609141000, guid: a130d4401e4fbfc4f8db75b60d0cab45,
    type: 3}
  m_PrefabInstance: {fileID: 1281885831285376969}
  m_PrefabAsset: {fileID: 0}
  m_GameObject: {fileID: 3892571848280766147}
  m_Enabled: 1
  m_EditorHideFlags: 0
  m_Script: {fileID: 11500000, guid: 67db9e8f0e2ae9c40bc1e2b64352a6b4, type: 3}
  m_Name: 
  m_EditorClassIdentifier: 
--- !u!114 &6885058424213384316 stripped
MonoBehaviour:
  m_CorrespondingSourceObject: {fileID: 5640345630985661365, guid: a130d4401e4fbfc4f8db75b60d0cab45,
    type: 3}
  m_PrefabInstance: {fileID: 1281885831285376969}
  m_PrefabAsset: {fileID: 0}
  m_GameObject: {fileID: 0}
  m_Enabled: 1
  m_EditorHideFlags: 0
  m_Script: {fileID: 11500000, guid: 4e29b1a8efbd4b44bb3f3716e73f07ff, type: 3}
  m_Name: 
  m_EditorClassIdentifier: 
--- !u!1 &3892571847533044674 stripped
GameObject:
  m_CorrespondingSourceObject: {fileID: 2868543543326778379, guid: a130d4401e4fbfc4f8db75b60d0cab45,
    type: 3}
  m_PrefabInstance: {fileID: 1281885831285376969}
  m_PrefabAsset: {fileID: 0}
--- !u!114 &3892571847533044672 stripped
MonoBehaviour:
  m_CorrespondingSourceObject: {fileID: 2868543543326778377, guid: a130d4401e4fbfc4f8db75b60d0cab45,
    type: 3}
  m_PrefabInstance: {fileID: 1281885831285376969}
  m_PrefabAsset: {fileID: 0}
  m_GameObject: {fileID: 3892571847533044674}
  m_Enabled: 1
  m_EditorHideFlags: 0
  m_Script: {fileID: 11500000, guid: 67db9e8f0e2ae9c40bc1e2b64352a6b4, type: 3}
  m_Name: 
  m_EditorClassIdentifier: 
--- !u!114 &6885058424757766883 stripped
MonoBehaviour:
  m_CorrespondingSourceObject: {fileID: 5640345630445423914, guid: a130d4401e4fbfc4f8db75b60d0cab45,
    type: 3}
  m_PrefabInstance: {fileID: 1281885831285376969}
  m_PrefabAsset: {fileID: 0}
  m_GameObject: {fileID: 0}
  m_Enabled: 1
  m_EditorHideFlags: 0
  m_Script: {fileID: 11500000, guid: 5f7201a12d95ffc409449d95f23cf332, type: 3}
  m_Name: 
  m_EditorClassIdentifier: 
--- !u!224 &8987048366111680236 stripped
RectTransform:
  m_CorrespondingSourceObject: {fileID: 7886441216458907941, guid: a130d4401e4fbfc4f8db75b60d0cab45,
    type: 3}
  m_PrefabInstance: {fileID: 1281885831285376969}
  m_PrefabAsset: {fileID: 0}
--- !u!114 &6885058424593767988 stripped
MonoBehaviour:
  m_CorrespondingSourceObject: {fileID: 5640345630827600381, guid: a130d4401e4fbfc4f8db75b60d0cab45,
    type: 3}
  m_PrefabInstance: {fileID: 1281885831285376969}
  m_PrefabAsset: {fileID: 0}
  m_GameObject: {fileID: 0}
  m_Enabled: 1
  m_EditorHideFlags: 0
  m_Script: {fileID: 11500000, guid: 4e29b1a8efbd4b44bb3f3716e73f07ff, type: 3}
  m_Name: 
  m_EditorClassIdentifier: 
--- !u!114 &6885058425361263772 stripped
MonoBehaviour:
  m_CorrespondingSourceObject: {fileID: 5640345632123710293, guid: a130d4401e4fbfc4f8db75b60d0cab45,
    type: 3}
  m_PrefabInstance: {fileID: 1281885831285376969}
  m_PrefabAsset: {fileID: 0}
  m_GameObject: {fileID: 0}
  m_Enabled: 1
  m_EditorHideFlags: 0
  m_Script: {fileID: 11500000, guid: 5f7201a12d95ffc409449d95f23cf332, type: 3}
  m_Name: 
  m_EditorClassIdentifier: 
--- !u!114 &6885058424492772946 stripped
MonoBehaviour:
  m_CorrespondingSourceObject: {fileID: 5640345630727260571, guid: a130d4401e4fbfc4f8db75b60d0cab45,
    type: 3}
  m_PrefabInstance: {fileID: 1281885831285376969}
  m_PrefabAsset: {fileID: 0}
  m_GameObject: {fileID: 0}
  m_Enabled: 1
  m_EditorHideFlags: 0
  m_Script: {fileID: 11500000, guid: 4e29b1a8efbd4b44bb3f3716e73f07ff, type: 3}
  m_Name: 
  m_EditorClassIdentifier: 
--- !u!114 &6885058424507105868 stripped
MonoBehaviour:
  m_CorrespondingSourceObject: {fileID: 5640345630742250885, guid: a130d4401e4fbfc4f8db75b60d0cab45,
    type: 3}
  m_PrefabInstance: {fileID: 1281885831285376969}
  m_PrefabAsset: {fileID: 0}
  m_GameObject: {fileID: 0}
  m_Enabled: 1
  m_EditorHideFlags: 0
  m_Script: {fileID: 11500000, guid: 5f7201a12d95ffc409449d95f23cf332, type: 3}
  m_Name: 
  m_EditorClassIdentifier: 
--- !u!114 &6885058424325797154 stripped
MonoBehaviour:
  m_CorrespondingSourceObject: {fileID: 5640345631095583467, guid: a130d4401e4fbfc4f8db75b60d0cab45,
    type: 3}
  m_PrefabInstance: {fileID: 1281885831285376969}
  m_PrefabAsset: {fileID: 0}
  m_GameObject: {fileID: 0}
  m_Enabled: 1
  m_EditorHideFlags: 0
  m_Script: {fileID: 11500000, guid: 5f7201a12d95ffc409449d95f23cf332, type: 3}
  m_Name: 
  m_EditorClassIdentifier: 
--- !u!114 &6885058426192796655 stripped
MonoBehaviour:
  m_CorrespondingSourceObject: {fileID: 5640345631354985510, guid: a130d4401e4fbfc4f8db75b60d0cab45,
    type: 3}
  m_PrefabInstance: {fileID: 1281885831285376969}
  m_PrefabAsset: {fileID: 0}
  m_GameObject: {fileID: 0}
  m_Enabled: 1
  m_EditorHideFlags: 0
  m_Script: {fileID: 11500000, guid: 4e29b1a8efbd4b44bb3f3716e73f07ff, type: 3}
  m_Name: 
  m_EditorClassIdentifier: 
--- !u!114 &6885058424238683799 stripped
MonoBehaviour:
  m_CorrespondingSourceObject: {fileID: 5640345631010697566, guid: a130d4401e4fbfc4f8db75b60d0cab45,
    type: 3}
  m_PrefabInstance: {fileID: 1281885831285376969}
  m_PrefabAsset: {fileID: 0}
  m_GameObject: {fileID: 0}
  m_Enabled: 1
  m_EditorHideFlags: 0
  m_Script: {fileID: 11500000, guid: 4e29b1a8efbd4b44bb3f3716e73f07ff, type: 3}
  m_Name: 
  m_EditorClassIdentifier: 
--- !u!114 &6885058424981846114 stripped
MonoBehaviour:
  m_CorrespondingSourceObject: {fileID: 5640345630670159787, guid: a130d4401e4fbfc4f8db75b60d0cab45,
    type: 3}
  m_PrefabInstance: {fileID: 1281885831285376969}
  m_PrefabAsset: {fileID: 0}
  m_GameObject: {fileID: 0}
  m_Enabled: 1
  m_EditorHideFlags: 0
  m_Script: {fileID: 11500000, guid: 5f7201a12d95ffc409449d95f23cf332, type: 3}
  m_Name: 
  m_EditorClassIdentifier: 
--- !u!114 &6885058426025815517 stripped
MonoBehaviour:
  m_CorrespondingSourceObject: {fileID: 5640345631723301396, guid: a130d4401e4fbfc4f8db75b60d0cab45,
    type: 3}
  m_PrefabInstance: {fileID: 1281885831285376969}
  m_PrefabAsset: {fileID: 0}
  m_GameObject: {fileID: 0}
  m_Enabled: 1
  m_EditorHideFlags: 0
  m_Script: {fileID: 11500000, guid: 5f7201a12d95ffc409449d95f23cf332, type: 3}
  m_Name: 
  m_EditorClassIdentifier: 
--- !u!114 &6885058426300340125 stripped
MonoBehaviour:
  m_CorrespondingSourceObject: {fileID: 5640345631452958804, guid: a130d4401e4fbfc4f8db75b60d0cab45,
    type: 3}
  m_PrefabInstance: {fileID: 1281885831285376969}
  m_PrefabAsset: {fileID: 0}
  m_GameObject: {fileID: 0}
  m_Enabled: 1
  m_EditorHideFlags: 0
  m_Script: {fileID: 11500000, guid: 4e29b1a8efbd4b44bb3f3716e73f07ff, type: 3}
  m_Name: 
  m_EditorClassIdentifier: 
--- !u!224 &6885058424638651662 stripped
RectTransform:
  m_CorrespondingSourceObject: {fileID: 5640345630866586311, guid: a130d4401e4fbfc4f8db75b60d0cab45,
    type: 3}
  m_PrefabInstance: {fileID: 1281885831285376969}
  m_PrefabAsset: {fileID: 0}
--- !u!223 &6885058424638651657 stripped
Canvas:
  m_CorrespondingSourceObject: {fileID: 5640345630866586304, guid: a130d4401e4fbfc4f8db75b60d0cab45,
    type: 3}
  m_PrefabInstance: {fileID: 1281885831285376969}
  m_PrefabAsset: {fileID: 0}
--- !u!114 &9175508636676953680 stripped
MonoBehaviour:
  m_CorrespondingSourceObject: {fileID: 7971327508341035417, guid: a130d4401e4fbfc4f8db75b60d0cab45,
    type: 3}
  m_PrefabInstance: {fileID: 1281885831285376969}
  m_PrefabAsset: {fileID: 0}
  m_GameObject: {fileID: 0}
  m_Enabled: 1
  m_EditorHideFlags: 0
  m_Script: {fileID: 11500000, guid: f00b66e31dbb60843a3634b3fdf6b433, type: 3}
  m_Name: 
  m_EditorClassIdentifier: 
--- !u!114 &9175508636676953681 stripped
MonoBehaviour:
  m_CorrespondingSourceObject: {fileID: 7971327508341035416, guid: a130d4401e4fbfc4f8db75b60d0cab45,
    type: 3}
  m_PrefabInstance: {fileID: 1281885831285376969}
  m_PrefabAsset: {fileID: 0}
  m_GameObject: {fileID: 0}
  m_Enabled: 1
  m_EditorHideFlags: 0
  m_Script: {fileID: 11500000, guid: 933aade1b7bdc4745b7fb46927a1a6d9, type: 3}
  m_Name: 
  m_EditorClassIdentifier: 
--- !u!114 &6885058424400443434 stripped
MonoBehaviour:
  m_CorrespondingSourceObject: {fileID: 5640345631171936227, guid: a130d4401e4fbfc4f8db75b60d0cab45,
    type: 3}
  m_PrefabInstance: {fileID: 1281885831285376969}
  m_PrefabAsset: {fileID: 0}
  m_GameObject: {fileID: 0}
  m_Enabled: 1
  m_EditorHideFlags: 0
  m_Script: {fileID: 11500000, guid: 4e29b1a8efbd4b44bb3f3716e73f07ff, type: 3}
  m_Name: 
  m_EditorClassIdentifier: 
--- !u!114 &6885058425696040818 stripped
MonoBehaviour:
  m_CorrespondingSourceObject: {fileID: 5640345631923056827, guid: a130d4401e4fbfc4f8db75b60d0cab45,
    type: 3}
  m_PrefabInstance: {fileID: 1281885831285376969}
  m_PrefabAsset: {fileID: 0}
  m_GameObject: {fileID: 0}
  m_Enabled: 1
  m_EditorHideFlags: 0
  m_Script: {fileID: 11500000, guid: 5f7201a12d95ffc409449d95f23cf332, type: 3}
  m_Name: 
  m_EditorClassIdentifier: 
--- !u!1001 &2233714268123216737
PrefabInstance:
  m_ObjectHideFlags: 0
  serializedVersion: 2
  m_Modification:
    m_TransformParent: {fileID: 4066141521874250529}
    m_Modifications:
    - target: {fileID: 2157411845613774624, guid: aa818d55147fc284680d62f907fc1463,
        type: 3}
      propertyPath: m_BackGroundColor.b
      value: 0.6
      objectReference: {fileID: 0}
    - target: {fileID: 2157411845613774624, guid: aa818d55147fc284680d62f907fc1463,
        type: 3}
      propertyPath: m_BackGroundColor.g
      value: 0.5921569
      objectReference: {fileID: 0}
    - target: {fileID: 2157411845613774624, guid: aa818d55147fc284680d62f907fc1463,
        type: 3}
      propertyPath: m_BackGroundColor.r
      value: 0.74509805
      objectReference: {fileID: 0}
    - target: {fileID: 2157411845613774626, guid: aa818d55147fc284680d62f907fc1463,
        type: 3}
      propertyPath: player
      value: 
      objectReference: {fileID: 3234566676964539973}
    - target: {fileID: 2157411845613774626, guid: aa818d55147fc284680d62f907fc1463,
        type: 3}
      propertyPath: offset.y
      value: 2.2
      objectReference: {fileID: 0}
    - target: {fileID: 2157411845613774627, guid: aa818d55147fc284680d62f907fc1463,
        type: 3}
      propertyPath: m_RootOrder
      value: 0
      objectReference: {fileID: 0}
    - target: {fileID: 2157411845613774627, guid: aa818d55147fc284680d62f907fc1463,
        type: 3}
      propertyPath: m_LocalPosition.x
      value: 0
      objectReference: {fileID: 0}
    - target: {fileID: 2157411845613774627, guid: aa818d55147fc284680d62f907fc1463,
        type: 3}
      propertyPath: m_LocalPosition.y
      value: 0
      objectReference: {fileID: 0}
    - target: {fileID: 2157411845613774627, guid: aa818d55147fc284680d62f907fc1463,
        type: 3}
      propertyPath: m_LocalPosition.z
      value: 0
      objectReference: {fileID: 0}
    - target: {fileID: 2157411845613774627, guid: aa818d55147fc284680d62f907fc1463,
        type: 3}
      propertyPath: m_LocalRotation.w
      value: 1
      objectReference: {fileID: 0}
    - target: {fileID: 2157411845613774627, guid: aa818d55147fc284680d62f907fc1463,
        type: 3}
      propertyPath: m_LocalRotation.x
      value: 0
      objectReference: {fileID: 0}
    - target: {fileID: 2157411845613774627, guid: aa818d55147fc284680d62f907fc1463,
        type: 3}
      propertyPath: m_LocalRotation.y
      value: 0
      objectReference: {fileID: 0}
    - target: {fileID: 2157411845613774627, guid: aa818d55147fc284680d62f907fc1463,
        type: 3}
      propertyPath: m_LocalRotation.z
      value: 0
      objectReference: {fileID: 0}
    - target: {fileID: 2157411845613774627, guid: aa818d55147fc284680d62f907fc1463,
        type: 3}
      propertyPath: m_LocalEulerAnglesHint.x
      value: 0
      objectReference: {fileID: 0}
    - target: {fileID: 2157411845613774627, guid: aa818d55147fc284680d62f907fc1463,
        type: 3}
      propertyPath: m_LocalEulerAnglesHint.y
      value: 0
      objectReference: {fileID: 0}
    - target: {fileID: 2157411845613774627, guid: aa818d55147fc284680d62f907fc1463,
        type: 3}
      propertyPath: m_LocalEulerAnglesHint.z
      value: 0
      objectReference: {fileID: 0}
    - target: {fileID: 2157411845613774639, guid: aa818d55147fc284680d62f907fc1463,
        type: 3}
      propertyPath: m_Name
      value: CameraCollision
      objectReference: {fileID: 0}
    m_RemovedComponents: []
  m_SourcePrefab: {fileID: 100100000, guid: aa818d55147fc284680d62f907fc1463, type: 3}
--- !u!114 &220419020542958659 stripped
MonoBehaviour:
  m_CorrespondingSourceObject: {fileID: 2157411845613774626, guid: aa818d55147fc284680d62f907fc1463,
    type: 3}
  m_PrefabInstance: {fileID: 2233714268123216737}
  m_PrefabAsset: {fileID: 0}
  m_GameObject: {fileID: 0}
  m_Enabled: 1
  m_EditorHideFlags: 0
  m_Script: {fileID: 11500000, guid: 6c800ac7d8bd9a24895ff5357910f096, type: 3}
  m_Name: 
  m_EditorClassIdentifier: 
--- !u!4 &220419020542958658 stripped
Transform:
  m_CorrespondingSourceObject: {fileID: 2157411845613774627, guid: aa818d55147fc284680d62f907fc1463,
    type: 3}
  m_PrefabInstance: {fileID: 2233714268123216737}
  m_PrefabAsset: {fileID: 0}
--- !u!20 &220419020542958657 stripped
Camera:
  m_CorrespondingSourceObject: {fileID: 2157411845613774624, guid: aa818d55147fc284680d62f907fc1463,
    type: 3}
  m_PrefabInstance: {fileID: 2233714268123216737}
  m_PrefabAsset: {fileID: 0}
--- !u!1001 &2238488753004040653
PrefabInstance:
  m_ObjectHideFlags: 0
  serializedVersion: 2
  m_Modification:
    m_TransformParent: {fileID: 283054571348075145}
    m_Modifications:
    - target: {fileID: 268505498, guid: 6584dd284e19d0f4791da77234f452a3, type: 3}
      propertyPath: m_Size.x
      value: 1
      objectReference: {fileID: 0}
    - target: {fileID: 268505498, guid: 6584dd284e19d0f4791da77234f452a3, type: 3}
      propertyPath: m_Size.z
      value: 1
      objectReference: {fileID: 0}
    - target: {fileID: 268505498, guid: 6584dd284e19d0f4791da77234f452a3, type: 3}
      propertyPath: m_Center.x
      value: 0
      objectReference: {fileID: 0}
    - target: {fileID: 268505498, guid: 6584dd284e19d0f4791da77234f452a3, type: 3}
      propertyPath: m_Center.z
      value: 0
      objectReference: {fileID: 0}
    - target: {fileID: 2088870930242407240, guid: 6584dd284e19d0f4791da77234f452a3,
        type: 3}
      propertyPath: canvas
      value: 
      objectReference: {fileID: 6885058424638651657}
    - target: {fileID: 2088870930242407240, guid: 6584dd284e19d0f4791da77234f452a3,
        type: 3}
      propertyPath: cursorTransform
      value: 
      objectReference: {fileID: 8987048366111680236}
    - target: {fileID: 2088870930242407240, guid: 6584dd284e19d0f4791da77234f452a3,
        type: 3}
      propertyPath: canvasRectTransform
      value: 
      objectReference: {fileID: 6885058424638651662}
    - target: {fileID: 2088870930242407241, guid: 6584dd284e19d0f4791da77234f452a3,
        type: 3}
      propertyPath: m_RootOrder
      value: 1
      objectReference: {fileID: 0}
    - target: {fileID: 2088870930242407241, guid: 6584dd284e19d0f4791da77234f452a3,
        type: 3}
      propertyPath: m_LocalPosition.x
      value: 0.1
      objectReference: {fileID: 0}
    - target: {fileID: 2088870930242407241, guid: 6584dd284e19d0f4791da77234f452a3,
        type: 3}
      propertyPath: m_LocalPosition.y
      value: -0.53
      objectReference: {fileID: 0}
    - target: {fileID: 2088870930242407241, guid: 6584dd284e19d0f4791da77234f452a3,
        type: 3}
      propertyPath: m_LocalPosition.z
      value: -1
      objectReference: {fileID: 0}
    - target: {fileID: 2088870930242407241, guid: 6584dd284e19d0f4791da77234f452a3,
        type: 3}
      propertyPath: m_LocalRotation.w
      value: 1
      objectReference: {fileID: 0}
    - target: {fileID: 2088870930242407241, guid: 6584dd284e19d0f4791da77234f452a3,
        type: 3}
      propertyPath: m_LocalRotation.x
      value: -0
      objectReference: {fileID: 0}
    - target: {fileID: 2088870930242407241, guid: 6584dd284e19d0f4791da77234f452a3,
        type: 3}
      propertyPath: m_LocalRotation.y
      value: -0
      objectReference: {fileID: 0}
    - target: {fileID: 2088870930242407241, guid: 6584dd284e19d0f4791da77234f452a3,
        type: 3}
      propertyPath: m_LocalRotation.z
      value: -0
      objectReference: {fileID: 0}
    - target: {fileID: 2088870930242407241, guid: 6584dd284e19d0f4791da77234f452a3,
        type: 3}
      propertyPath: m_LocalEulerAnglesHint.x
      value: 0
      objectReference: {fileID: 0}
    - target: {fileID: 2088870930242407241, guid: 6584dd284e19d0f4791da77234f452a3,
        type: 3}
      propertyPath: m_LocalEulerAnglesHint.y
      value: 0
      objectReference: {fileID: 0}
    - target: {fileID: 2088870930242407241, guid: 6584dd284e19d0f4791da77234f452a3,
        type: 3}
      propertyPath: m_LocalEulerAnglesHint.z
      value: 0
      objectReference: {fileID: 0}
    - target: {fileID: 2088870930242407243, guid: 6584dd284e19d0f4791da77234f452a3,
        type: 3}
      propertyPath: m_Name
      value: GameManager
      objectReference: {fileID: 0}
    - target: {fileID: 2088870930242407245, guid: 6584dd284e19d0f4791da77234f452a3,
        type: 3}
      propertyPath: itemUI.Array.data[0]
      value: 
      objectReference: {fileID: 6885058424507105868}
    - target: {fileID: 2088870930242407245, guid: 6584dd284e19d0f4791da77234f452a3,
        type: 3}
      propertyPath: itemUI.Array.data[1]
      value: 
      objectReference: {fileID: 6885058424325797154}
    - target: {fileID: 2088870930242407245, guid: 6584dd284e19d0f4791da77234f452a3,
        type: 3}
      propertyPath: itemUI.Array.data[2]
      value: 
      objectReference: {fileID: 6885058426120916732}
    - target: {fileID: 2088870930242407245, guid: 6584dd284e19d0f4791da77234f452a3,
        type: 3}
      propertyPath: itemUI.Array.data[3]
      value: 
      objectReference: {fileID: 6885058424981846114}
    - target: {fileID: 2088870930242407245, guid: 6584dd284e19d0f4791da77234f452a3,
        type: 3}
      propertyPath: itemUI.Array.data[4]
      value: 
      objectReference: {fileID: 6885058425361263772}
    - target: {fileID: 2088870930242407245, guid: 6584dd284e19d0f4791da77234f452a3,
        type: 3}
      propertyPath: itemUI.Array.data[5]
      value: 
      objectReference: {fileID: 6885058424757766883}
    - target: {fileID: 2088870930242407245, guid: 6584dd284e19d0f4791da77234f452a3,
        type: 3}
      propertyPath: itemUI.Array.data[6]
      value: 
      objectReference: {fileID: 6885058425696040818}
    - target: {fileID: 2088870930242407245, guid: 6584dd284e19d0f4791da77234f452a3,
        type: 3}
      propertyPath: itemUI.Array.data[7]
      value: 
      objectReference: {fileID: 6885058425230866079}
    - target: {fileID: 2088870930242407245, guid: 6584dd284e19d0f4791da77234f452a3,
        type: 3}
      propertyPath: itemUI.Array.data[8]
      value: 
      objectReference: {fileID: 6885058426041556583}
    - target: {fileID: 2088870930242407245, guid: 6584dd284e19d0f4791da77234f452a3,
        type: 3}
      propertyPath: itemUI.Array.data[9]
      value: 
      objectReference: {fileID: 6885058426212939879}
    - target: {fileID: 2088870930242407245, guid: 6584dd284e19d0f4791da77234f452a3,
        type: 3}
      propertyPath: itemUI.Array.data[10]
      value: 
      objectReference: {fileID: 6885058425029485490}
    - target: {fileID: 2088870930242407245, guid: 6584dd284e19d0f4791da77234f452a3,
        type: 3}
      propertyPath: itemUI.Array.data[11]
      value: 
      objectReference: {fileID: 6885058425604549348}
    - target: {fileID: 2088870930242407245, guid: 6584dd284e19d0f4791da77234f452a3,
        type: 3}
      propertyPath: itemUI.Array.data[12]
      value: 
      objectReference: {fileID: 6885058424383485499}
    - target: {fileID: 2088870930242407245, guid: 6584dd284e19d0f4791da77234f452a3,
        type: 3}
      propertyPath: itemUI.Array.data[13]
      value: 
      objectReference: {fileID: 6885058426025815517}
    - target: {fileID: 2088870930242407245, guid: 6584dd284e19d0f4791da77234f452a3,
        type: 3}
      propertyPath: itemUI.Array.data[14]
      value: 
      objectReference: {fileID: 6885058425842050730}
    - target: {fileID: 2088870930242407245, guid: 6584dd284e19d0f4791da77234f452a3,
        type: 3}
      propertyPath: itemUI.Array.data[15]
      value: 
      objectReference: {fileID: 6885058426260919315}
    - target: {fileID: 2088870930242407245, guid: 6584dd284e19d0f4791da77234f452a3,
        type: 3}
      propertyPath: itemUI.Array.data[16]
      value: 
      objectReference: {fileID: 6885058425739027025}
    - target: {fileID: 2088870930242407245, guid: 6584dd284e19d0f4791da77234f452a3,
        type: 3}
      propertyPath: itemUI.Array.data[17]
      value: 
      objectReference: {fileID: 6885058425336278505}
    - target: {fileID: 2088870930242407245, guid: 6584dd284e19d0f4791da77234f452a3,
        type: 3}
      propertyPath: itemButtons.Array.data[0]
      value: 
      objectReference: {fileID: 6885058425547962360}
    - target: {fileID: 2088870930242407245, guid: 6584dd284e19d0f4791da77234f452a3,
        type: 3}
      propertyPath: itemButtons.Array.data[1]
      value: 
      objectReference: {fileID: 6885058424238683799}
    - target: {fileID: 2088870930242407245, guid: 6584dd284e19d0f4791da77234f452a3,
        type: 3}
      propertyPath: itemButtons.Array.data[2]
      value: 
      objectReference: {fileID: 6885058426192796655}
    - target: {fileID: 2088870930242407245, guid: 6584dd284e19d0f4791da77234f452a3,
        type: 3}
      propertyPath: itemButtons.Array.data[3]
      value: 
      objectReference: {fileID: 6885058426300340125}
    - target: {fileID: 2088870930242407245, guid: 6584dd284e19d0f4791da77234f452a3,
        type: 3}
      propertyPath: itemButtons.Array.data[4]
      value: 
      objectReference: {fileID: 6885058424492772946}
    - target: {fileID: 2088870930242407245, guid: 6584dd284e19d0f4791da77234f452a3,
        type: 3}
      propertyPath: itemButtons.Array.data[5]
      value: 
      objectReference: {fileID: 6885058424593767988}
    - target: {fileID: 2088870930242407245, guid: 6584dd284e19d0f4791da77234f452a3,
        type: 3}
      propertyPath: itemButtons.Array.data[6]
      value: 
      objectReference: {fileID: 6885058424400443434}
    - target: {fileID: 2088870930242407245, guid: 6584dd284e19d0f4791da77234f452a3,
        type: 3}
      propertyPath: itemButtons.Array.data[7]
      value: 
      objectReference: {fileID: 6885058424213384316}
    - target: {fileID: 2088870930242407245, guid: 6584dd284e19d0f4791da77234f452a3,
        type: 3}
      propertyPath: itemButtons.Array.data[8]
      value: 
      objectReference: {fileID: 6885058424565945847}
    - target: {fileID: 2088870930242407245, guid: 6584dd284e19d0f4791da77234f452a3,
        type: 3}
      propertyPath: itemButtons.Array.data[9]
      value: 
      objectReference: {fileID: 6885058424908555137}
    - target: {fileID: 2088870930242407245, guid: 6584dd284e19d0f4791da77234f452a3,
        type: 3}
      propertyPath: itemButtons.Array.data[10]
      value: 
      objectReference: {fileID: 6885058425780004842}
    - target: {fileID: 2088870930242407245, guid: 6584dd284e19d0f4791da77234f452a3,
        type: 3}
      propertyPath: itemButtons.Array.data[11]
      value: 
      objectReference: {fileID: 6885058425676858783}
    - target: {fileID: 2088870930242407245, guid: 6584dd284e19d0f4791da77234f452a3,
        type: 3}
      propertyPath: itemButtons.Array.data[12]
      value: 
      objectReference: {fileID: 6885058424227145003}
    - target: {fileID: 2088870930242407245, guid: 6584dd284e19d0f4791da77234f452a3,
        type: 3}
      propertyPath: itemButtons.Array.data[13]
      value: 
      objectReference: {fileID: 6885058425240698238}
    - target: {fileID: 2088870930242407245, guid: 6584dd284e19d0f4791da77234f452a3,
        type: 3}
      propertyPath: itemButtons.Array.data[14]
      value: 
      objectReference: {fileID: 6885058425096287394}
    - target: {fileID: 2088870930242407245, guid: 6584dd284e19d0f4791da77234f452a3,
        type: 3}
      propertyPath: itemButtons.Array.data[15]
      value: 
      objectReference: {fileID: 6885058425335634237}
    - target: {fileID: 2088870930242407245, guid: 6584dd284e19d0f4791da77234f452a3,
        type: 3}
      propertyPath: itemButtons.Array.data[16]
      value: 
      objectReference: {fileID: 6885058425633148836}
    - target: {fileID: 2088870930242407245, guid: 6584dd284e19d0f4791da77234f452a3,
        type: 3}
      propertyPath: itemButtons.Array.data[17]
      value: 
      objectReference: {fileID: 6885058424208173008}
    - target: {fileID: 2088870930242407246, guid: 6584dd284e19d0f4791da77234f452a3,
        type: 3}
      propertyPath: cam
      value: 
      objectReference: {fileID: 220419020542958659}
    - target: {fileID: 2088870930242407246, guid: 6584dd284e19d0f4791da77234f452a3,
        type: 3}
      propertyPath: player
      value: 
      objectReference: {fileID: 468028744957991768}
    - target: {fileID: 2088870930242407246, guid: 6584dd284e19d0f4791da77234f452a3,
        type: 3}
      propertyPath: scenes
      value: 
      objectReference: {fileID: 9175508636676953681}
    - target: {fileID: 2088870930242407246, guid: 6584dd284e19d0f4791da77234f452a3,
        type: 3}
      propertyPath: uiSetting
      value: 
      objectReference: {fileID: 9175508636676953680}
    - target: {fileID: 2088870930242407247, guid: 6584dd284e19d0f4791da77234f452a3,
        type: 3}
      propertyPath: savePoints.Array.size
      value: 4
      objectReference: {fileID: 0}
    - target: {fileID: 2088870930242407247, guid: 6584dd284e19d0f4791da77234f452a3,
        type: 3}
      propertyPath: levelObjects.Array.size
      value: 4
      objectReference: {fileID: 0}
    - target: {fileID: 2088870930242407247, guid: 6584dd284e19d0f4791da77234f452a3,
        type: 3}
      propertyPath: savePoints.Array.data[2]
      value: 
      objectReference: {fileID: 0}
    - target: {fileID: 2088870930242407247, guid: 6584dd284e19d0f4791da77234f452a3,
        type: 3}
      propertyPath: savePoints.Array.data[3]
      value: 
      objectReference: {fileID: 0}
    - target: {fileID: 2088870930242407247, guid: 6584dd284e19d0f4791da77234f452a3,
        type: 3}
      propertyPath: bloodData.bloodObjectsName.Array.size
      value: 1
      objectReference: {fileID: 0}
    - target: {fileID: 4411508224675700174, guid: 6584dd284e19d0f4791da77234f452a3,
        type: 3}
      propertyPath: m_LocalScale.x
      value: 7.1025147
      objectReference: {fileID: 0}
    - target: {fileID: 4411508224675700174, guid: 6584dd284e19d0f4791da77234f452a3,
        type: 3}
      propertyPath: m_LocalScale.y
      value: 7.153669
      objectReference: {fileID: 0}
    - target: {fileID: 4411508224675700174, guid: 6584dd284e19d0f4791da77234f452a3,
        type: 3}
      propertyPath: m_LocalScale.z
      value: 7.8879614
      objectReference: {fileID: 0}
    - target: {fileID: 4411508224675700174, guid: 6584dd284e19d0f4791da77234f452a3,
        type: 3}
      propertyPath: m_LocalPosition.x
      value: -4.87
      objectReference: {fileID: 0}
    - target: {fileID: 4411508224675700174, guid: 6584dd284e19d0f4791da77234f452a3,
        type: 3}
      propertyPath: m_LocalPosition.y
      value: -3.61
      objectReference: {fileID: 0}
    - target: {fileID: 4411508224675700174, guid: 6584dd284e19d0f4791da77234f452a3,
        type: 3}
      propertyPath: m_LocalPosition.z
      value: 136.8
      objectReference: {fileID: 0}
    - target: {fileID: 4411508224675700174, guid: 6584dd284e19d0f4791da77234f452a3,
        type: 3}
      propertyPath: m_LocalRotation.w
      value: 0.7071068
      objectReference: {fileID: 0}
    - target: {fileID: 4411508224675700174, guid: 6584dd284e19d0f4791da77234f452a3,
        type: 3}
      propertyPath: m_LocalRotation.y
      value: 0.7071068
      objectReference: {fileID: 0}
    - target: {fileID: 5085740652833298821, guid: 6584dd284e19d0f4791da77234f452a3,
        type: 3}
      propertyPath: m_LocalScale.x
      value: 238.26468
      objectReference: {fileID: 0}
    - target: {fileID: 5085740652833298821, guid: 6584dd284e19d0f4791da77234f452a3,
        type: 3}
      propertyPath: m_LocalPosition.x
      value: 23.2
      objectReference: {fileID: 0}
    - target: {fileID: 5085740652833298821, guid: 6584dd284e19d0f4791da77234f452a3,
        type: 3}
      propertyPath: m_LocalPosition.y
      value: -35.2
      objectReference: {fileID: 0}
    - target: {fileID: 5085740652833298821, guid: 6584dd284e19d0f4791da77234f452a3,
        type: 3}
      propertyPath: m_LocalPosition.z
      value: 49.6
      objectReference: {fileID: 0}
    - target: {fileID: 5261761764760680038, guid: 6584dd284e19d0f4791da77234f452a3,
        type: 3}
      propertyPath: m_LocalPosition.x
      value: 4.61
      objectReference: {fileID: 0}
    - target: {fileID: 5261761764760680038, guid: 6584dd284e19d0f4791da77234f452a3,
        type: 3}
      propertyPath: m_LocalPosition.y
      value: 3.4
      objectReference: {fileID: 0}
    - target: {fileID: 5261761764760680038, guid: 6584dd284e19d0f4791da77234f452a3,
        type: 3}
      propertyPath: m_LocalPosition.z
      value: 57.05
      objectReference: {fileID: 0}
    - target: {fileID: 5332752273964885048, guid: 6584dd284e19d0f4791da77234f452a3,
        type: 3}
      propertyPath: m_LocalScale.x
      value: 1
      objectReference: {fileID: 0}
    - target: {fileID: 5332752273964885048, guid: 6584dd284e19d0f4791da77234f452a3,
        type: 3}
      propertyPath: m_LocalScale.y
      value: 1
      objectReference: {fileID: 0}
    - target: {fileID: 5332752273964885048, guid: 6584dd284e19d0f4791da77234f452a3,
        type: 3}
      propertyPath: m_LocalScale.z
      value: 1
      objectReference: {fileID: 0}
    - target: {fileID: 5332752273964885048, guid: 6584dd284e19d0f4791da77234f452a3,
        type: 3}
      propertyPath: m_LocalPosition.x
      value: 0.25
      objectReference: {fileID: 0}
    - target: {fileID: 5332752273964885048, guid: 6584dd284e19d0f4791da77234f452a3,
        type: 3}
      propertyPath: m_LocalPosition.y
      value: -27.47
      objectReference: {fileID: 0}
    - target: {fileID: 5332752273964885048, guid: 6584dd284e19d0f4791da77234f452a3,
        type: 3}
      propertyPath: m_LocalPosition.z
      value: 72.5
      objectReference: {fileID: 0}
    - target: {fileID: 5332752273964885048, guid: 6584dd284e19d0f4791da77234f452a3,
        type: 3}
      propertyPath: m_LocalRotation.w
      value: 1
      objectReference: {fileID: 0}
    - target: {fileID: 5332752273964885048, guid: 6584dd284e19d0f4791da77234f452a3,
        type: 3}
      propertyPath: m_LocalRotation.x
      value: 0
      objectReference: {fileID: 0}
    - target: {fileID: 5332752273964885048, guid: 6584dd284e19d0f4791da77234f452a3,
        type: 3}
      propertyPath: m_LocalRotation.y
      value: 0
      objectReference: {fileID: 0}
    - target: {fileID: 5332752273964885048, guid: 6584dd284e19d0f4791da77234f452a3,
        type: 3}
      propertyPath: m_LocalRotation.z
      value: 0
      objectReference: {fileID: 0}
    - target: {fileID: 5332752273964885048, guid: 6584dd284e19d0f4791da77234f452a3,
        type: 3}
      propertyPath: m_LocalEulerAnglesHint.y
      value: 0
      objectReference: {fileID: 0}
    - target: {fileID: 5684755851807634654, guid: 6584dd284e19d0f4791da77234f452a3,
        type: 3}
      propertyPath: m_Name
      value: LV3
      objectReference: {fileID: 0}
    - target: {fileID: 6000516764578258996, guid: 6584dd284e19d0f4791da77234f452a3,
        type: 3}
      propertyPath: m_Size.x
      value: 2
      objectReference: {fileID: 0}
    - target: {fileID: 6000516764578258996, guid: 6584dd284e19d0f4791da77234f452a3,
        type: 3}
      propertyPath: m_Size.y
      value: 2
      objectReference: {fileID: 0}
    - target: {fileID: 6000516764578258996, guid: 6584dd284e19d0f4791da77234f452a3,
        type: 3}
      propertyPath: m_Size.z
      value: 2
      objectReference: {fileID: 0}
    - target: {fileID: 6823346657617187503, guid: 6584dd284e19d0f4791da77234f452a3,
        type: 3}
      propertyPath: rightHand
      value: 
      objectReference: {fileID: 7214745777018882095}
    - target: {fileID: 7082656397386786923, guid: 6584dd284e19d0f4791da77234f452a3,
        type: 3}
      propertyPath: m_Camera
      value: 
      objectReference: {fileID: 220419020542958657}
    - target: {fileID: 7082656397386786923, guid: 6584dd284e19d0f4791da77234f452a3,
        type: 3}
      propertyPath: m_UIInputModule
      value: 
      objectReference: {fileID: 662042940292449525}
    - target: {fileID: 7674025907280249260, guid: 6584dd284e19d0f4791da77234f452a3,
        type: 3}
      propertyPath: m_LocalScale.x
      value: 1
      objectReference: {fileID: 0}
    - target: {fileID: 7674025907280249260, guid: 6584dd284e19d0f4791da77234f452a3,
        type: 3}
      propertyPath: m_LocalScale.y
      value: 1
      objectReference: {fileID: 0}
    - target: {fileID: 7674025907280249260, guid: 6584dd284e19d0f4791da77234f452a3,
        type: 3}
      propertyPath: m_LocalScale.z
      value: 1
      objectReference: {fileID: 0}
    - target: {fileID: 7674025907280249260, guid: 6584dd284e19d0f4791da77234f452a3,
        type: 3}
      propertyPath: m_LocalPosition.x
      value: 0.181
      objectReference: {fileID: 0}
    - target: {fileID: 7674025907280249260, guid: 6584dd284e19d0f4791da77234f452a3,
        type: 3}
      propertyPath: m_LocalPosition.y
      value: 0
      objectReference: {fileID: 0}
    - target: {fileID: 7674025907280249260, guid: 6584dd284e19d0f4791da77234f452a3,
        type: 3}
      propertyPath: m_LocalPosition.z
      value: -3.987
      objectReference: {fileID: 0}
    - target: {fileID: 7861052233253403321, guid: 6584dd284e19d0f4791da77234f452a3,
        type: 3}
      propertyPath: m_IsActive
      value: 1
      objectReference: {fileID: 0}
    - target: {fileID: 8878853378899616603, guid: 6584dd284e19d0f4791da77234f452a3,
        type: 3}
      propertyPath: m_Size.x
      value: 2
      objectReference: {fileID: 0}
    - target: {fileID: 8878853378899616603, guid: 6584dd284e19d0f4791da77234f452a3,
        type: 3}
      propertyPath: m_Size.y
      value: 2
      objectReference: {fileID: 0}
    - target: {fileID: 8878853378899616603, guid: 6584dd284e19d0f4791da77234f452a3,
        type: 3}
      propertyPath: m_Size.z
      value: 2
      objectReference: {fileID: 0}
    - target: {fileID: 8878853378899616603, guid: 6584dd284e19d0f4791da77234f452a3,
        type: 3}
      propertyPath: m_Center.x
      value: 11
      objectReference: {fileID: 0}
    - target: {fileID: 8878853378899616603, guid: 6584dd284e19d0f4791da77234f452a3,
        type: 3}
      propertyPath: m_Center.z
      value: 20
      objectReference: {fileID: 0}
    m_RemovedComponents:
    - {fileID: 268505496, guid: 6584dd284e19d0f4791da77234f452a3, type: 3}
    - {fileID: 268505497, guid: 6584dd284e19d0f4791da77234f452a3, type: 3}
    - {fileID: 268505499, guid: 6584dd284e19d0f4791da77234f452a3, type: 3}
    - {fileID: 268505500, guid: 6584dd284e19d0f4791da77234f452a3, type: 3}
  m_SourcePrefab: {fileID: 100100000, guid: 6584dd284e19d0f4791da77234f452a3, type: 3}
--- !u!114 &283054571700247168 stripped
MonoBehaviour:
  m_CorrespondingSourceObject: {fileID: 2088870930242407245, guid: 6584dd284e19d0f4791da77234f452a3,
    type: 3}
  m_PrefabInstance: {fileID: 2238488753004040653}
  m_PrefabAsset: {fileID: 0}
  m_GameObject: {fileID: 0}
  m_Enabled: 1
  m_EditorHideFlags: 0
  m_Script: {fileID: 11500000, guid: 2aafed69a5bb8b348a0bdbce2ce50ecc, type: 3}
  m_Name: 
  m_EditorClassIdentifier: 
--- !u!114 &283054571700247171 stripped
MonoBehaviour:
  m_CorrespondingSourceObject: {fileID: 2088870930242407246, guid: 6584dd284e19d0f4791da77234f452a3,
    type: 3}
  m_PrefabInstance: {fileID: 2238488753004040653}
  m_PrefabAsset: {fileID: 0}
  m_GameObject: {fileID: 0}
  m_Enabled: 1
  m_EditorHideFlags: 0
  m_Script: {fileID: 11500000, guid: c950506ee1a743c4eba805d59c371ba1, type: 3}
  m_Name: 
  m_EditorClassIdentifier: 
--- !u!4 &283054571700247172 stripped
Transform:
  m_CorrespondingSourceObject: {fileID: 2088870930242407241, guid: 6584dd284e19d0f4791da77234f452a3,
    type: 3}
  m_PrefabInstance: {fileID: 2238488753004040653}
  m_PrefabAsset: {fileID: 0}
--- !u!114 &283054571700247170 stripped
MonoBehaviour:
  m_CorrespondingSourceObject: {fileID: 2088870930242407247, guid: 6584dd284e19d0f4791da77234f452a3,
    type: 3}
  m_PrefabInstance: {fileID: 2238488753004040653}
  m_PrefabAsset: {fileID: 0}
  m_GameObject: {fileID: 0}
  m_Enabled: 1
  m_EditorHideFlags: 0
  m_Script: {fileID: 11500000, guid: d5ce52c82f592d348b9b503dac8fc434, type: 3}
  m_Name: 
  m_EditorClassIdentifier: 
--- !u!114 &2238488753966482338 stripped
MonoBehaviour:
  m_CorrespondingSourceObject: {fileID: 1231180399, guid: 6584dd284e19d0f4791da77234f452a3,
    type: 3}
  m_PrefabInstance: {fileID: 2238488753004040653}
  m_PrefabAsset: {fileID: 0}
  m_GameObject: {fileID: 0}
  m_Enabled: 1
  m_EditorHideFlags: 0
  m_Script: {fileID: 11500000, guid: 8750ff42b6ccc1f4d935f507ea082614, type: 3}
  m_Name: 
  m_EditorClassIdentifier: 
--- !u!114 &283054571700247167 stripped
MonoBehaviour:
  m_CorrespondingSourceObject: {fileID: 2088870930242407346, guid: 6584dd284e19d0f4791da77234f452a3,
    type: 3}
  m_PrefabInstance: {fileID: 2238488753004040653}
  m_PrefabAsset: {fileID: 0}
  m_GameObject: {fileID: 0}
  m_Enabled: 1
  m_EditorHideFlags: 0
  m_Script: {fileID: 11500000, guid: dacf271beb52e9c408f7518a810e68b7, type: 3}
  m_Name: 
  m_EditorClassIdentifier: 
--- !u!1001 &6781941108094036882
PrefabInstance:
  m_ObjectHideFlags: 0
  serializedVersion: 2
  m_Modification:
    m_TransformParent: {fileID: 283054571348075145}
    m_Modifications:
    - target: {fileID: 5166521728457406368, guid: 563afeec4f85ef04fa5d6ed9836723da,
        type: 3}
      propertyPath: sharedProfile
      value: 
      objectReference: {fileID: 11400000, guid: ee53a0c52c7e57d4eb99fe58295d6b38,
        type: 2}
    - target: {fileID: 5166521728457406369, guid: 563afeec4f85ef04fa5d6ed9836723da,
        type: 3}
      propertyPath: m_Name
      value: PostProcessing
      objectReference: {fileID: 0}
    - target: {fileID: 5166521728457406371, guid: 563afeec4f85ef04fa5d6ed9836723da,
        type: 3}
      propertyPath: m_RootOrder
      value: 4
      objectReference: {fileID: 0}
    - target: {fileID: 5166521728457406371, guid: 563afeec4f85ef04fa5d6ed9836723da,
        type: 3}
      propertyPath: m_LocalPosition.x
      value: 0
      objectReference: {fileID: 0}
    - target: {fileID: 5166521728457406371, guid: 563afeec4f85ef04fa5d6ed9836723da,
        type: 3}
      propertyPath: m_LocalPosition.y
      value: 0
      objectReference: {fileID: 0}
    - target: {fileID: 5166521728457406371, guid: 563afeec4f85ef04fa5d6ed9836723da,
        type: 3}
      propertyPath: m_LocalPosition.z
      value: 0
      objectReference: {fileID: 0}
    - target: {fileID: 5166521728457406371, guid: 563afeec4f85ef04fa5d6ed9836723da,
        type: 3}
      propertyPath: m_LocalRotation.w
      value: 1
      objectReference: {fileID: 0}
    - target: {fileID: 5166521728457406371, guid: 563afeec4f85ef04fa5d6ed9836723da,
        type: 3}
      propertyPath: m_LocalRotation.x
      value: 0
      objectReference: {fileID: 0}
    - target: {fileID: 5166521728457406371, guid: 563afeec4f85ef04fa5d6ed9836723da,
        type: 3}
      propertyPath: m_LocalRotation.y
      value: 0
      objectReference: {fileID: 0}
    - target: {fileID: 5166521728457406371, guid: 563afeec4f85ef04fa5d6ed9836723da,
        type: 3}
      propertyPath: m_LocalRotation.z
      value: 0
      objectReference: {fileID: 0}
    - target: {fileID: 5166521728457406371, guid: 563afeec4f85ef04fa5d6ed9836723da,
        type: 3}
      propertyPath: m_LocalEulerAnglesHint.x
      value: 0
      objectReference: {fileID: 0}
    - target: {fileID: 5166521728457406371, guid: 563afeec4f85ef04fa5d6ed9836723da,
        type: 3}
      propertyPath: m_LocalEulerAnglesHint.y
      value: 0
      objectReference: {fileID: 0}
    - target: {fileID: 5166521728457406371, guid: 563afeec4f85ef04fa5d6ed9836723da,
        type: 3}
      propertyPath: m_LocalEulerAnglesHint.z
      value: 0
      objectReference: {fileID: 0}
    m_RemovedComponents: []
  m_SourcePrefab: {fileID: 100100000, guid: 563afeec4f85ef04fa5d6ed9836723da, type: 3}
--- !u!4 &1850248967780703281 stripped
Transform:
  m_CorrespondingSourceObject: {fileID: 5166521728457406371, guid: 563afeec4f85ef04fa5d6ed9836723da,
    type: 3}
  m_PrefabInstance: {fileID: 6781941108094036882}
  m_PrefabAsset: {fileID: 0}
--- !u!1001 &8510943646702628018
PrefabInstance:
  m_ObjectHideFlags: 0
  serializedVersion: 2
  m_Modification:
    m_TransformParent: {fileID: 283054571348075145}
    m_Modifications:
    - target: {fileID: 89650822580077802, guid: 3cabfb414a68c404a882ebe5a26cf24e,
        type: 3}
      propertyPath: m_ConnectedAnchor.x
      value: 0.0000000059951093
      objectReference: {fileID: 0}
    - target: {fileID: 89650822580077802, guid: 3cabfb414a68c404a882ebe5a26cf24e,
        type: 3}
      propertyPath: m_ConnectedAnchor.z
      value: -0.015649198
      objectReference: {fileID: 0}
    - target: {fileID: 1297915375662802078, guid: 3cabfb414a68c404a882ebe5a26cf24e,
        type: 3}
      propertyPath: m_ConnectedAnchor.x
      value: -0.0077358424
      objectReference: {fileID: 0}
    - target: {fileID: 1297915375662802078, guid: 3cabfb414a68c404a882ebe5a26cf24e,
        type: 3}
      propertyPath: m_ConnectedAnchor.y
      value: 0.4615654
      objectReference: {fileID: 0}
    - target: {fileID: 1297915375662802078, guid: 3cabfb414a68c404a882ebe5a26cf24e,
        type: 3}
      propertyPath: m_ConnectedAnchor.z
      value: -0.02219486
      objectReference: {fileID: 0}
    - target: {fileID: 1722212035143351880, guid: 3cabfb414a68c404a882ebe5a26cf24e,
        type: 3}
      propertyPath: m_RootOrder
      value: 0
      objectReference: {fileID: 0}
    - target: {fileID: 1722212035143351880, guid: 3cabfb414a68c404a882ebe5a26cf24e,
        type: 3}
      propertyPath: m_LocalPosition.x
      value: 0.22
      objectReference: {fileID: 0}
    - target: {fileID: 1722212035143351880, guid: 3cabfb414a68c404a882ebe5a26cf24e,
        type: 3}
      propertyPath: m_LocalPosition.y
      value: 0.29
      objectReference: {fileID: 0}
    - target: {fileID: 1722212035143351880, guid: 3cabfb414a68c404a882ebe5a26cf24e,
        type: 3}
      propertyPath: m_LocalPosition.z
      value: -4.91
      objectReference: {fileID: 0}
    - target: {fileID: 1722212035143351880, guid: 3cabfb414a68c404a882ebe5a26cf24e,
        type: 3}
      propertyPath: m_LocalRotation.w
      value: 1
      objectReference: {fileID: 0}
    - target: {fileID: 1722212035143351880, guid: 3cabfb414a68c404a882ebe5a26cf24e,
        type: 3}
      propertyPath: m_LocalRotation.x
      value: 0
      objectReference: {fileID: 0}
    - target: {fileID: 1722212035143351880, guid: 3cabfb414a68c404a882ebe5a26cf24e,
        type: 3}
      propertyPath: m_LocalRotation.y
      value: 0
      objectReference: {fileID: 0}
    - target: {fileID: 1722212035143351880, guid: 3cabfb414a68c404a882ebe5a26cf24e,
        type: 3}
      propertyPath: m_LocalRotation.z
      value: 0
      objectReference: {fileID: 0}
    - target: {fileID: 1722212035143351880, guid: 3cabfb414a68c404a882ebe5a26cf24e,
        type: 3}
      propertyPath: m_LocalEulerAnglesHint.x
      value: 0
      objectReference: {fileID: 0}
    - target: {fileID: 1722212035143351880, guid: 3cabfb414a68c404a882ebe5a26cf24e,
        type: 3}
      propertyPath: m_LocalEulerAnglesHint.y
      value: 0
      objectReference: {fileID: 0}
    - target: {fileID: 1722212035143351880, guid: 3cabfb414a68c404a882ebe5a26cf24e,
        type: 3}
      propertyPath: m_LocalEulerAnglesHint.z
      value: 0
      objectReference: {fileID: 0}
    - target: {fileID: 2066402448941999345, guid: 3cabfb414a68c404a882ebe5a26cf24e,
        type: 3}
      propertyPath: ground.m_Bits
      value: 33536
      objectReference: {fileID: 0}
    - target: {fileID: 2066402448941999346, guid: 3cabfb414a68c404a882ebe5a26cf24e,
        type: 3}
      propertyPath: m_Name
      value: Player 2
      objectReference: {fileID: 0}
    - target: {fileID: 2253022322992590058, guid: 3cabfb414a68c404a882ebe5a26cf24e,
        type: 3}
      propertyPath: m_ConnectedAnchor.x
      value: 0.000000004071281
      objectReference: {fileID: 0}
    - target: {fileID: 2253022322992590058, guid: 3cabfb414a68c404a882ebe5a26cf24e,
        type: 3}
      propertyPath: m_ConnectedAnchor.z
      value: -0.00000019837724
      objectReference: {fileID: 0}
    - target: {fileID: 2933952361769799471, guid: 3cabfb414a68c404a882ebe5a26cf24e,
        type: 3}
      propertyPath: m_ConnectedAnchor.x
      value: -0.0000000040335797
      objectReference: {fileID: 0}
    - target: {fileID: 2933952361769799471, guid: 3cabfb414a68c404a882ebe5a26cf24e,
        type: 3}
      propertyPath: m_ConnectedAnchor.y
      value: 0.2284083
      objectReference: {fileID: 0}
    - target: {fileID: 2933952361769799471, guid: 3cabfb414a68c404a882ebe5a26cf24e,
        type: 3}
      propertyPath: m_ConnectedAnchor.z
      value: 0.000000045636284
      objectReference: {fileID: 0}
    - target: {fileID: 3166454199078854442, guid: 3cabfb414a68c404a882ebe5a26cf24e,
        type: 3}
      propertyPath: m_ConnectedAnchor.x
      value: -0.21100476
      objectReference: {fileID: 0}
    - target: {fileID: 3166454199078854442, guid: 3cabfb414a68c404a882ebe5a26cf24e,
        type: 3}
      propertyPath: m_ConnectedAnchor.y
      value: 0.20066126
      objectReference: {fileID: 0}
    - target: {fileID: 3166454199078854442, guid: 3cabfb414a68c404a882ebe5a26cf24e,
        type: 3}
      propertyPath: m_ConnectedAnchor.z
      value: 0.0023967386
      objectReference: {fileID: 0}
    - target: {fileID: 4479535790360134948, guid: 3cabfb414a68c404a882ebe5a26cf24e,
        type: 3}
      propertyPath: m_ConnectedAnchor.x
      value: 0.0026064997
      objectReference: {fileID: 0}
    - target: {fileID: 4479535790360134948, guid: 3cabfb414a68c404a882ebe5a26cf24e,
        type: 3}
      propertyPath: m_ConnectedAnchor.y
      value: 0.46162793
      objectReference: {fileID: 0}
    - target: {fileID: 4479535790360134948, guid: 3cabfb414a68c404a882ebe5a26cf24e,
        type: 3}
      propertyPath: m_ConnectedAnchor.z
      value: -0.021839235
      objectReference: {fileID: 0}
    - target: {fileID: 4984115558739750605, guid: 3cabfb414a68c404a882ebe5a26cf24e,
        type: 3}
      propertyPath: m_ConnectedAnchor.x
      value: -0.089434534
      objectReference: {fileID: 0}
    - target: {fileID: 4984115558739750605, guid: 3cabfb414a68c404a882ebe5a26cf24e,
        type: 3}
      propertyPath: m_ConnectedAnchor.z
      value: 0.010967805
      objectReference: {fileID: 0}
    - target: {fileID: 5699739590641139497, guid: 3cabfb414a68c404a882ebe5a26cf24e,
        type: 3}
      propertyPath: m_ConnectedAnchor.x
      value: 0.21100444
      objectReference: {fileID: 0}
    - target: {fileID: 5699739590641139497, guid: 3cabfb414a68c404a882ebe5a26cf24e,
        type: 3}
      propertyPath: m_ConnectedAnchor.y
      value: 0.2008452
      objectReference: {fileID: 0}
    - target: {fileID: 5699739590641139497, guid: 3cabfb414a68c404a882ebe5a26cf24e,
        type: 3}
      propertyPath: m_ConnectedAnchor.z
      value: 0.005322038
      objectReference: {fileID: 0}
    - target: {fileID: 7996621316345290789, guid: 3cabfb414a68c404a882ebe5a26cf24e,
        type: 3}
      propertyPath: m_ConnectedAnchor.x
      value: 3.7355763e-10
      objectReference: {fileID: 0}
    - target: {fileID: 7996621316345290789, guid: 3cabfb414a68c404a882ebe5a26cf24e,
        type: 3}
      propertyPath: m_ConnectedAnchor.z
      value: 0.012574237
      objectReference: {fileID: 0}
    - target: {fileID: 8098096165993019370, guid: 3cabfb414a68c404a882ebe5a26cf24e,
        type: 3}
      propertyPath: manager
      value: 
      objectReference: {fileID: 283054571700247171}
    - target: {fileID: 8653154896161373470, guid: 3cabfb414a68c404a882ebe5a26cf24e,
        type: 3}
      propertyPath: m_ConnectedAnchor.x
      value: 0.089434534
      objectReference: {fileID: 0}
    - target: {fileID: 8653154896161373470, guid: 3cabfb414a68c404a882ebe5a26cf24e,
        type: 3}
      propertyPath: m_ConnectedAnchor.z
      value: 0.010251575
      objectReference: {fileID: 0}
    m_RemovedComponents: []
  m_SourcePrefab: {fileID: 100100000, guid: 3cabfb414a68c404a882ebe5a26cf24e, type: 3}
--- !u!1 &7214745777018882095 stripped
GameObject:
  m_CorrespondingSourceObject: {fileID: 1297915375662802077, guid: 3cabfb414a68c404a882ebe5a26cf24e,
    type: 3}
  m_PrefabInstance: {fileID: 8510943646702628018}
  m_PrefabAsset: {fileID: 0}
--- !u!4 &3234566676964539973 stripped
Transform:
  m_CorrespondingSourceObject: {fileID: 6557117250923041527, guid: 3cabfb414a68c404a882ebe5a26cf24e,
    type: 3}
  m_PrefabInstance: {fileID: 8510943646702628018}
  m_PrefabAsset: {fileID: 0}
--- !u!114 &8074023068032893441 stripped
MonoBehaviour:
  m_CorrespondingSourceObject: {fileID: 436922919507652275, guid: 3cabfb414a68c404a882ebe5a26cf24e,
    type: 3}
  m_PrefabInstance: {fileID: 8510943646702628018}
  m_PrefabAsset: {fileID: 0}
  m_GameObject: {fileID: 0}
  m_Enabled: 1
  m_EditorHideFlags: 0
  m_Script: {fileID: 11500000, guid: ec37cb2433f93694ba302a453e5b72cc, type: 3}
  m_Name: 
  m_EditorClassIdentifier: 
--- !u!114 &468028744957991768 stripped
MonoBehaviour:
  m_CorrespondingSourceObject: {fileID: 8098096165993019370, guid: 3cabfb414a68c404a882ebe5a26cf24e,
    type: 3}
  m_PrefabInstance: {fileID: 8510943646702628018}
  m_PrefabAsset: {fileID: 0}
  m_GameObject: {fileID: 0}
  m_Enabled: 1
  m_EditorHideFlags: 0
  m_Script: {fileID: 11500000, guid: 9105907a098d0354a86432ea5ddce88f, type: 3}
  m_Name: 
  m_EditorClassIdentifier: 
--- !u!4 &7060083596325606138 stripped
Transform:
  m_CorrespondingSourceObject: {fileID: 1722212035143351880, guid: 3cabfb414a68c404a882ebe5a26cf24e,
    type: 3}
  m_PrefabInstance: {fileID: 8510943646702628018}
  m_PrefabAsset: {fileID: 0}
--- !u!114 &662042940292449525
MonoBehaviour:
  m_ObjectHideFlags: 0
  m_CorrespondingSourceObject: {fileID: 0}
  m_PrefabInstance: {fileID: 0}
  m_PrefabAsset: {fileID: 0}
  m_GameObject: {fileID: 0}
  m_Enabled: 1
  m_EditorHideFlags: 0
  m_Script: {fileID: 11500000, guid: 01614664b831546d2ae94a42149d80ac, type: 3}
  m_Name: 
  m_EditorClassIdentifier: 
  m_MoveRepeatDelay: 0.5
  m_MoveRepeatRate: 0.1
  m_ActionsAsset: {fileID: -944628639613478452, guid: cb228c24345761744bc7245897ed7b3c,
    type: 3}
  m_PointAction: {fileID: 0}
  m_MoveAction: {fileID: 0}
  m_SubmitAction: {fileID: 0}
  m_CancelAction: {fileID: 0}
  m_LeftClickAction: {fileID: 0}
  m_MiddleClickAction: {fileID: 0}
  m_RightClickAction: {fileID: 0}
  m_ScrollWheelAction: {fileID: 0}
  m_TrackedDevicePositionAction: {fileID: 0}
  m_TrackedDeviceOrientationAction: {fileID: 0}
  m_DeselectOnBackgroundClick: 1
  m_PointerBehavior: 0
