[api-updater (non-obsolete-error-filter)] 2022/2/18 下午 09:48:02 : Starting C:/Program Files/Unity/Hub/Editor/2020.3.13f1/Editor/Data/Tools/ScriptUpdater/APIUpdater.NonObsoleteApiUpdaterDetector.exe
[api-updater (non-obsolete-error-filter)] 
----------------------------------
jit/startup time      : 362.8016ms
moved types parse time: 46ms
candidates parse time : 1ms
C# parse time         : 190ms
candidates check time : 271ms
console write time    : 0ms

