%YAML 1.1
%TAG !u! tag:unity3d.com,2011:
--- !u!114 &-541642137373586424
MonoBehaviour:
  m_ObjectHideFlags: 11
  m_CorrespondingSourceObject: {fileID: 0}
  m_PrefabInstance: {fileID: 0}
  m_PrefabAsset: {fileID: 0}
  m_GameObject: {fileID: 0}
  m_Enabled: 1
  m_EditorHideFlags: 0
  m_Script: {fileID: 11500000, guid: d0353a89b1f911e48b9e16bdc9f2e058, type: 3}
  m_Name: 
  m_EditorClassIdentifier: 
  version: 4
--- !u!21 &2100000
Material:
  serializedVersion: 6
  m_ObjectHideFlags: 0
  m_CorrespondingSourceObject: {fileID: 0}
  m_PrefabInstance: {fileID: 0}
  m_PrefabAsset: {fileID: 0}
  m_Name: T_1_Poison_Flower
  m_Shader: {fileID: -6465566751694194690, guid: 50e6b6e38bb78f347b7e826fd5c51b53,
    type: 3}
  m_ShaderKeywords: MAIN_LIGHT_CALCULATE_SHADOWS _MAIN_LIGHT_SHADOWS_CASCADE _SHADOWS_SOFT
    ADDITIONAL_LIGHT_CALCULATE_SHADOWS
  m_LightmapFlags: 4
  m_EnableInstancingVariants: 0
  m_DoubleSidedGI: 0
  m_CustomRenderQueue: -1
  stringTagMap: {}
  disabledShaderPasses: []
  m_SavedProperties:
    serializedVersion: 3
    m_TexEnvs:
    - Texture2D_1bbd738ece4a4919abe3a93d6cfbeb18:
        m_Texture: {fileID: 2800000, guid: 03c3365f0c8c8194caa92e7204e1680a, type: 3}
        m_Scale: {x: 1, y: 1}
        m_Offset: {x: 0, y: 0}
    - Texture2D_a2ab5558166d4075bd04d88a3ea63629:
        m_Texture: {fileID: 2800000, guid: c021d051fa0cba84282b4a2577aa85c5, type: 3}
        m_Scale: {x: 1, y: 1}
        m_Offset: {x: 0, y: 0}
    - Texture2D_ef5c1b779add4f7fae62580d88968bea:
        m_Texture: {fileID: 2800000, guid: 87ce03bd447ccce48bbff87ac0d8355f, type: 3}
        m_Scale: {x: 1, y: 1}
        m_Offset: {x: 0, y: 0}
    - _BaseMap:
        m_Texture: {fileID: 2800000, guid: 03c3365f0c8c8194caa92e7204e1680a, type: 3}
        m_Scale: {x: 1, y: 1}
        m_Offset: {x: 0, y: 0}
    - _Base_Map:
        m_Texture: {fileID: 2800000, guid: 03c3365f0c8c8194caa92e7204e1680a, type: 3}
        m_Scale: {x: 1, y: 1}
        m_Offset: {x: 0, y: 0}
    - _BumpMap:
        m_Texture: {fileID: 0}
        m_Scale: {x: 1, y: 1}
        m_Offset: {x: 0, y: 0}
    - _DetailAlbedoMap:
        m_Texture: {fileID: 0}
        m_Scale: {x: 1, y: 1}
        m_Offset: {x: 0, y: 0}
    - _DetailMask:
        m_Texture: {fileID: 0}
        m_Scale: {x: 1, y: 1}
        m_Offset: {x: 0, y: 0}
    - _DetailNormalMap:
        m_Texture: {fileID: 0}
        m_Scale: {x: 1, y: 1}
        m_Offset: {x: 0, y: 0}
    - _EmissionMap:
        m_Texture: {fileID: 0}
        m_Scale: {x: 1, y: 1}
        m_Offset: {x: 0, y: 0}
    - _MainTex:
        m_Texture: {fileID: 0}
        m_Scale: {x: 1, y: 1}
        m_Offset: {x: 0, y: 0}
    - _MetallicGlossMap:
        m_Texture: {fileID: 0}
        m_Scale: {x: 1, y: 1}
        m_Offset: {x: 0, y: 0}
    - _NormalMap:
        m_Texture: {fileID: 0}
        m_Scale: {x: 1, y: 1}
        m_Offset: {x: 0, y: 0}
    - _NormalMap2:
        m_Texture: {fileID: 0}
        m_Scale: {x: 1, y: 1}
        m_Offset: {x: 0, y: 0}
    - _Normal_Map2:
        m_Texture: {fileID: 0}
        m_Scale: {x: 1, y: 1}
        m_Offset: {x: 0, y: 0}
    - _OcclusionMap:
        m_Texture: {fileID: 0}
        m_Scale: {x: 1, y: 1}
        m_Offset: {x: 0, y: 0}
    - _ParallaxMap:
        m_Texture: {fileID: 0}
        m_Scale: {x: 1, y: 1}
        m_Offset: {x: 0, y: 0}
    - _PatternTexture:
        m_Texture: {fileID: 2800000, guid: 7453fdfc8716900498f127f6c3287aa9, type: 3}
        m_Scale: {x: 1, y: 1}
        m_Offset: {x: 0, y: 0}
    - _Pattern_Texture:
        m_Texture: {fileID: 2800000, guid: 7453fdfc8716900498f127f6c3287aa9, type: 3}
        m_Scale: {x: 1, y: 1}
        m_Offset: {x: 0, y: 0}
    - _SpecGlossMap:
        m_Texture: {fileID: 0}
        m_Scale: {x: 1, y: 1}
        m_Offset: {x: 0, y: 0}
    - unity_Lightmaps:
        m_Texture: {fileID: 0}
        m_Scale: {x: 1, y: 1}
        m_Offset: {x: 0, y: 0}
    - unity_LightmapsInd:
        m_Texture: {fileID: 0}
        m_Scale: {x: 1, y: 1}
        m_Offset: {x: 0, y: 0}
    - unity_ShadowMasks:
        m_Texture: {fileID: 0}
        m_Scale: {x: 1, y: 1}
        m_Offset: {x: 0, y: 0}
    m_Floats:
    - Lighting_Cutoff: 0
    - Vector1_1ed2a9d3150d45289fbcf60613f1652b: 3
    - Vector1_488fdc6ed8734337b00701d92e2092df: 0
    - Vector1_6a58685d7d2a4e45aab6d500517942de: 0
    - Vector1_89fa3a17508341c693a3f46816cca74b: 0
    - Vector1_c84afd70a93247f4a20067b4a70f6203: 3
    - _Alpha: 1
    - _AlphaClip: 0
    - _Alphaclip: 0
    - _AmbientStrength: 0
    - _Ambient_Strength: 0.1
    - _Blend: 0
    - _BumpScale: 1
    - _ClearCoatMask: 0
    - _ClearCoatSmoothness: 0
    - _Cull: 2
    - _Cutoff: 0.5
    - _DetailAlbedoMapScale: 1
    - _DetailNormalMapScale: 1
    - _Dither: 2
    - _DitherOnOff: 0
    - _DstBlend: 0
    - _EnvironmentReflections: 1
    - _FalloffAmount: 1
    - _Falloff_Amount: 1
    - _FresnelSize: 0.3
    - _GlossMapScale: 0
    - _Glossiness: 0
    - _GlossyReflections: 0
    - _Hue: 0
    - _LightingCutoff: 0
    - _Metallic: 0
    - _NoiseOpacity: 1
    - _NoiseOverlay: 1
    - _NoiseScale: 20
    - _Noise_Scale: 5
    - _OcclusionStrength: 1
    - _Parallax: 0.005
    - _QueueOffset: 0
    - _ReceiveShadows: 1
    - _Saturation: 0.5
    - _Smoothness: 2.5
    - _SmoothnessTextureChannel: 0
    - _SpecularHighlights: 1
    - _SrcBlend: 1
    - _Surface: 0
    - _WorkflowMode: 1
    - _ZWrite: 1
    m_Colors:
    - Color_3422dfcbe5c447afb5bfd6620f23c29e: {r: 1, g: 0.9383391, b: 0.8915094, a: 0}
    - Color_76abeff900b1449fba62fc84e49838dc: {r: 1, g: 1, b: 1, a: 0}
    - Color_a2350a5c30644dddb91d24186c07a956: {r: 1, g: 1, b: 1, a: 1}
    - Color_a54e251990f6478591009ff5bc7345ba: {r: 0.3018868, g: 0.3018868, b: 0.3018868,
        a: 0}
    - Color_c092e232783c46c0add905c7f4669ee3: {r: 0.06323425, g: 0.16486436, b: 0.2735849,
        a: 1}
    - Color_c6fea71b27f44a3e9b1d9455c099f790: {r: 1, g: 1, b: 1, a: 0}
    - Color_cf5186203b3e456b8496d134c338d332: {r: 1, g: 1, b: 1, a: 1}
    - _BaseColor: {r: 1, g: 1, b: 1, a: 1}
    - _Base_Color: {r: 1, g: 1, b: 1, a: 0}
    - _Color: {r: 1, g: 1, b: 1, a: 1}
    - _DiffuseColor: {r: 1, g: 1, b: 1, a: 0}
    - _Diffuse_Color: {r: 1, g: 1, b: 1, a: 0}
    - _EmissionColor: {r: 0, g: 0, b: 0, a: 1}
    - _FresnelColor: {r: 1, g: 1, b: 1, a: 0}
    - _Fresnel_Color: {r: 1, g: 1, b: 1, a: 0}
    - _ShadowColor: {r: 0.03648984, g: 0.1128829, b: 0.1886792, a: 1}
    - _Shadow_Color: {r: 0.5648629, g: 0.6692239, b: 0.7735849, a: 1}
    - _SpecColor: {r: 0.19999996, g: 0.19999996, b: 0.19999996, a: 1}
    - _SpecularColor: {r: 0.509434, g: 0.48780707, b: 0.48780707, a: 1}
    - _Specular_Color: {r: 1, g: 1, b: 1, a: 0}
  m_BuildTextureStacks: []
